2022-10-18 07:44:35:065 [Appium] Welcome to Appium v1.22.3
2022-10-18 07:44:35:066 [Appium] Non-default server args:
2022-10-18 07:44:35:066 [Appium]   address: 127.0.0.1
2022-10-18 07:44:35:067 [Appium]   port: 18178
2022-10-18 07:44:35:067 [Appium]   logFile: C:\Users\Shilpa\Documents\New_Sri_Mandir\SRI_MANDIR(Different languages)\.\ServerLogs\appiumSriMandirVerifythatHoraTabDisplayedInTheMahabandarPage.log
2022-10-18 07:44:35:100 [Appium] Appium REST http interface listener started on 127.0.0.1:18178
2022-10-18 07:44:35:394 [HTTP] --> GET /wd/hub/status
2022-10-18 07:44:35:396 [HTTP] {}
2022-10-18 07:44:35:400 [GENERIC] Calling AppiumDriver.getStatus() with args: []
2022-10-18 07:44:35:403 [GENERIC] Responding to client with driver.getStatus() result: {"build":{"version":"1.22.3"}}
2022-10-18 07:44:35:420 [HTTP] <-- GET /wd/hub/status 200 19 ms - 68
2022-10-18 07:44:35:421 [HTTP] 
2022-10-18 07:44:35:953 [HTTP] --> POST /wd/hub/session
2022-10-18 07:44:35:954 [HTTP] {"desiredCapabilities":{"app":"./src/main/java/resources/app-debug-3.7.5.apk","noReset":true,"automationName":"UiAutomator2","autoGrantPermissions":true,"platformName":"Android","udid":"emulator-5554","platform":"ANDROID"},"capabilities":{"firstMatch":[{"appium:app":"./src/main/java/resources/app-debug-3.7.5.apk","appium:autoGrantPermissions":true,"appium:automationName":"UiAutomator2","appium:noReset":true,"platform":"ANDROID","platformName":"android","appium:udid":"emulator-5554"}]}}
2022-10-18 07:44:35:954 [W3C] Calling AppiumDriver.createSession() with args: [{"app":"./src/main/java/resources/app-debug-3.7.5.apk","noReset":true,"automationName":"UiAutomator2","autoGrantPermissions":true,"platformName":"Android","udid":"emulator-5554","platform":"ANDROID"},null,{"firstMatch":[{"appium:app":"./src/main/java/resources/app-debug-3.7.5.apk","appium:autoGrantPermissions":true,"appium:automationName":"UiAutomator2","appium:noReset":true,"platform":"ANDROID","platformName":"android","appium:udid":"emulator-5554"}]}]
2022-10-18 07:44:35:958 [BaseDriver] Event 'newSessionRequested' logged at 1666079075954 (13:14:35 GMT+0530 (India Standard Time))
2022-10-18 07:44:35:961 [BaseDriver] The following capabilities are not standard capabilities and should have an extension prefix:
2022-10-18 07:44:35:961 [BaseDriver]   platform
2022-10-18 07:44:36:279 [Appium] Appium v1.22.3 creating new AndroidUiautomator2Driver (v1.70.1) session
2022-10-18 07:44:36:283 [BaseDriver] W3C capabilities and MJSONWP desired capabilities were provided
2022-10-18 07:44:36:284 [BaseDriver] Creating session with W3C capabilities: {
2022-10-18 07:44:36:284 [BaseDriver]   "alwaysMatch": {
2022-10-18 07:44:36:284 [BaseDriver]     "appium:platform": "ANDROID",
2022-10-18 07:44:36:284 [BaseDriver]     "platformName": "android",
2022-10-18 07:44:36:285 [BaseDriver]     "appium:app": "./src/main/java/resources/app-debug-3.7.5.apk",
2022-10-18 07:44:36:285 [BaseDriver]     "appium:autoGrantPermissions": true,
2022-10-18 07:44:36:285 [BaseDriver]     "appium:automationName": "UiAutomator2",
2022-10-18 07:44:36:285 [BaseDriver]     "appium:noReset": true,
2022-10-18 07:44:36:285 [BaseDriver]     "appium:udid": "emulator-5554"
2022-10-18 07:44:36:285 [BaseDriver]   },
2022-10-18 07:44:36:286 [BaseDriver]   "firstMatch": [
2022-10-18 07:44:36:286 [BaseDriver]     {}
2022-10-18 07:44:36:286 [BaseDriver]   ]
2022-10-18 07:44:36:287 [BaseDriver] }
2022-10-18 07:44:36:298 [BaseDriver] The following capabilities were provided, but are not recognized by Appium:
2022-10-18 07:44:36:298 [BaseDriver]   platform
2022-10-18 07:44:36:301 [BaseDriver] Session created with session id: 72e71f04-f634-45c3-898f-bed72e95f117
2022-10-18 07:44:36:308 [BaseDriver] Using local app './src/main/java/resources/app-debug-3.7.5.apk'
2022-10-18 07:44:36:308 [BaseDriver] The current application path './src/main/java/resources/app-debug-3.7.5.apk' is not absolute and has been rewritten to 'C:\Users\Shilpa\Documents\New_Sri_Mandir\SRI_MANDIR(Different languages)\src\main\java\resources\app-debug-3.7.5.apk'. Consider using absolute paths rather than relative
2022-10-18 07:44:36:308 [UiAutomator2] Checking whether app is actually present
2022-10-18 07:44:36:374 [ADB] Found 2 'build-tools' folders under 'C:\Users\Shilpa\AppData\Local\Android\Sdk' (newest first):
2022-10-18 07:44:36:374 [ADB]     C:/Users/Shilpa/AppData/Local/Android/Sdk/build-tools/33.0.0
2022-10-18 07:44:36:374 [ADB]     C:/Users/Shilpa/AppData/Local/Android/Sdk/build-tools/30.0.3
2022-10-18 07:44:36:375 [ADB] Using 'adb.exe' from 'C:\Users\Shilpa\AppData\Local\Android\Sdk\platform-tools\adb.exe'
2022-10-18 07:44:36:377 [ADB] Running 'C:\Users\Shilpa\AppData\Local\Android\Sdk\platform-tools\adb.exe -P 5037 start-server'
2022-10-18 07:44:36:465 [AndroidDriver] Retrieving device list
2022-10-18 07:44:36:466 [ADB] Trying to find a connected android device
2022-10-18 07:44:36:467 [ADB] Getting connected devices
2022-10-18 07:44:36:499 [ADB] Connected devices: [{"udid":"emulator-5554","state":"device"}]
2022-10-18 07:44:36:500 [AndroidDriver] Using device: emulator-5554
2022-10-18 07:44:36:502 [ADB] Using 'adb.exe' from 'C:\Users\Shilpa\AppData\Local\Android\Sdk\platform-tools\adb.exe'
2022-10-18 07:44:36:503 [ADB] Running 'C:\Users\Shilpa\AppData\Local\Android\Sdk\platform-tools\adb.exe -P 5037 start-server'
2022-10-18 07:44:36:542 [ADB] Setting device id to emulator-5554
2022-10-18 07:44:36:543 [ADB] Running 'C:\Users\Shilpa\AppData\Local\Android\Sdk\platform-tools\adb.exe -P 5037 -s emulator-5554 shell getprop ro.build.version.sdk'
2022-10-18 07:44:36:647 [ADB] Current device property 'ro.build.version.sdk': 31
2022-10-18 07:44:36:647 [ADB] Getting device platform version
2022-10-18 07:44:36:648 [ADB] Running 'C:\Users\Shilpa\AppData\Local\Android\Sdk\platform-tools\adb.exe -P 5037 -s emulator-5554 shell getprop ro.build.version.release'
2022-10-18 07:44:36:740 [ADB] Current device property 'ro.build.version.release': 12
2022-10-18 07:44:36:740 [ADB] Device API level: 31
2022-10-18 07:44:36:740 [UiAutomator2] Relaxing hidden api policy
2022-10-18 07:44:36:741 [ADB] Running 'C:\Users\Shilpa\AppData\Local\Android\Sdk\platform-tools\adb.exe -P 5037 -s emulator-5554 shell 'settings put global hidden_api_policy_pre_p_apps 1;settings put global hidden_api_policy_p_apps 1;settings put global hidden_api_policy 1''
2022-10-18 07:44:36:921 [AndroidDriver] Parsing package and activity from app manifest
2022-10-18 07:44:36:979 [ADB] Package name: 'com.mandir'
2022-10-18 07:44:36:979 [ADB] Main activity name: 'com.mandir.ui.activity.SplashActivity'
2022-10-18 07:44:36:980 [AndroidDriver] Parsed package and activity are: com.mandir/com.mandir.ui.activity.SplashActivity
2022-10-18 07:44:36:980 [ADB] Running 'C:\Users\Shilpa\AppData\Local\Android\Sdk\platform-tools\adb.exe -P 5037 -s emulator-5554 wait-for-device'
2022-10-18 07:44:37:004 [ADB] Running 'C:\Users\Shilpa\AppData\Local\Android\Sdk\platform-tools\adb.exe -P 5037 -s emulator-5554 shell echo ping'
2022-10-18 07:44:37:061 [AndroidDriver] Pushing settings apk to device...
2022-10-18 07:44:37:062 [ADB] Getting install status for io.appium.settings
2022-10-18 07:44:37:062 [ADB] Running 'C:\Users\Shilpa\AppData\Local\Android\Sdk\platform-tools\adb.exe -P 5037 -s emulator-5554 shell dumpsys package io.appium.settings'
2022-10-18 07:44:37:139 [ADB] 'io.appium.settings' is installed
2022-10-18 07:44:37:139 [ADB] Getting package info for 'io.appium.settings'
2022-10-18 07:44:37:140 [ADB] Running 'C:\Users\Shilpa\AppData\Local\Android\Sdk\platform-tools\adb.exe -P 5037 -s emulator-5554 shell dumpsys package io.appium.settings'
2022-10-18 07:44:37:221 [ADB] The version name of the installed 'io.appium.settings' is greater or equal to the application version name ('3.4.0' >= '3.4.0')
2022-10-18 07:44:37:221 [ADB] There is no need to install/upgrade 'C:\Users\Shilpa\AppData\Roaming\npm\node_modules\appium\node_modules\io.appium.settings\apks\settings_apk-debug.apk'
2022-10-18 07:44:37:221 [ADB] Getting IDs of all 'io.appium.settings' processes
2022-10-18 07:44:37:222 [ADB] Running 'C:\Users\Shilpa\AppData\Local\Android\Sdk\platform-tools\adb.exe -P 5037 -s emulator-5554 shell 'pgrep --help; echo $?''
2022-10-18 07:44:37:291 [ADB] Running 'C:\Users\Shilpa\AppData\Local\Android\Sdk\platform-tools\adb.exe -P 5037 -s emulator-5554 shell pgrep -f \(\[\[:blank:\]\]\|\^\)io\.appium\.settings\(\[\[:blank:\]\]\|\$\)'
2022-10-18 07:44:37:385 [AndroidDriver] io.appium.settings is already running. There is no need to reset its permissions.
2022-10-18 07:44:37:386 [Logcat] Starting logs capture with command: C:\\Users\\Shilpa\\AppData\\Local\\Android\\Sdk\\platform-tools\\adb.exe -P 5037 -s emulator-5554 logcat -v threadtime
2022-10-18 07:44:37:479 [UiAutomator2] Forwarding UiAutomator2 Server port 6790 to local port 8212
2022-10-18 07:44:37:481 [ADB] Forwarding system: 8212 to device: 6790
2022-10-18 07:44:37:481 [ADB] Running 'C:\Users\Shilpa\AppData\Local\Android\Sdk\platform-tools\adb.exe -P 5037 -s emulator-5554 forward tcp:8212 tcp:6790'
2022-10-18 07:44:37:540 [ADB] Getting install status for io.appium.uiautomator2.server
2022-10-18 07:44:37:541 [ADB] Running 'C:\Users\Shilpa\AppData\Local\Android\Sdk\platform-tools\adb.exe -P 5037 -s emulator-5554 shell dumpsys package io.appium.uiautomator2.server'
2022-10-18 07:44:37:667 [ADB] 'io.appium.uiautomator2.server' is installed
2022-10-18 07:44:37:667 [ADB] Getting package info for 'io.appium.uiautomator2.server'
2022-10-18 07:44:37:667 [ADB] Running 'C:\Users\Shilpa\AppData\Local\Android\Sdk\platform-tools\adb.exe -P 5037 -s emulator-5554 shell dumpsys package io.appium.uiautomator2.server'
2022-10-18 07:44:38:020 [ADB] The version name of the installed 'io.appium.uiautomator2.server' is greater or equal to the application version name ('4.27.0' >= '4.27.0')
2022-10-18 07:44:38:021 [UiAutomator2] io.appium.uiautomator2.server installation state: sameVersionInstalled
2022-10-18 07:44:38:021 [ADB] Checking app cert for C:\Users\Shilpa\AppData\Roaming\npm\node_modules\appium\node_modules\appium-uiautomator2-server\apks\appium-uiautomator2-server-v4.27.0.apk
2022-10-18 07:44:38:051 [ADB] Using 'apksigner.jar' from 'C:\Users\Shilpa\AppData\Local\Android\Sdk\build-tools\33.0.0\lib\apksigner.jar'
2022-10-18 07:44:38:053 [ADB] Starting apksigner: 'C:\\Program Files\\Java\\jdk1.8.0_291\\bin\\java.exe' -Xmx1024M -Xss1m -jar C:\\Users\\Shilpa\\AppData\\Local\\Android\\Sdk\\build-tools\\33.0.0\\lib\\apksigner.jar verify --print-certs C:\\Users\\Shilpa\\AppData\\Roaming\\npm\\node_modules\\appium\\node_modules\\appium-uiautomator2-server\\apks\\appium-uiautomator2-server-v4.27.0.apk
2022-10-18 07:44:39:158 [ADB] apksigner stdout: Signer #1 certificate DN: EMAILADDRESS=android@android.com, CN=Android, OU=Android, O=Android, L=Mountain View, ST=California, C=US
2022-10-18 07:44:39:158 [ADB] Signer #1 certificate SHA-256 digest: a40da80a59d170caa950cf15c18c454d47a39b26989d8b640ecd745ba71bf5dc
2022-10-18 07:44:39:158 [ADB] Signer #1 certificate SHA-1 digest: 61ed377e85d386a8dfee6b864bd85b0bfaa5af81
2022-10-18 07:44:39:159 [ADB] Signer #1 certificate MD5 digest: e89b158e4bcf988ebd09eb83f5378e87
2022-10-18 07:44:39:159 [ADB] 
2022-10-18 07:44:39:159 [ADB] sha256 hash did match for 'appium-uiautomator2-server-v4.27.0.apk'
2022-10-18 07:44:39:159 [ADB] 'C:\Users\Shilpa\AppData\Roaming\npm\node_modules\appium\node_modules\appium-uiautomator2-server\apks\appium-uiautomator2-server-v4.27.0.apk' is signed with the default certificate
2022-10-18 07:44:39:159 [ADB] Getting install status for io.appium.uiautomator2.server.test
2022-10-18 07:44:39:159 [ADB] Running 'C:\Users\Shilpa\AppData\Local\Android\Sdk\platform-tools\adb.exe -P 5037 -s emulator-5554 shell dumpsys package io.appium.uiautomator2.server.test'
2022-10-18 07:44:39:230 [ADB] 'io.appium.uiautomator2.server.test' is installed
2022-10-18 07:44:39:231 [ADB] Checking app cert for C:\Users\Shilpa\AppData\Roaming\npm\node_modules\appium\node_modules\appium-uiautomator2-server\apks\appium-uiautomator2-server-debug-androidTest.apk
2022-10-18 07:44:39:234 [ADB] Starting apksigner: 'C:\\Program Files\\Java\\jdk1.8.0_291\\bin\\java.exe' -Xmx1024M -Xss1m -jar C:\\Users\\Shilpa\\AppData\\Local\\Android\\Sdk\\build-tools\\33.0.0\\lib\\apksigner.jar verify --print-certs C:\\Users\\Shilpa\\AppData\\Roaming\\npm\\node_modules\\appium\\node_modules\\appium-uiautomator2-server\\apks\\appium-uiautomator2-server-debug-androidTest.apk
2022-10-18 07:44:39:669 [ADB] apksigner stdout: Signer #1 certificate DN: EMAILADDRESS=android@android.com, CN=Android, OU=Android, O=Android, L=Mountain View, ST=California, C=US
2022-10-18 07:44:39:669 [ADB] Signer #1 certificate SHA-256 digest: a40da80a59d170caa950cf15c18c454d47a39b26989d8b640ecd745ba71bf5dc
2022-10-18 07:44:39:669 [ADB] Signer #1 certificate SHA-1 digest: 61ed377e85d386a8dfee6b864bd85b0bfaa5af81
2022-10-18 07:44:39:669 [ADB] Signer #1 certificate MD5 digest: e89b158e4bcf988ebd09eb83f5378e87
2022-10-18 07:44:39:669 [ADB] 
2022-10-18 07:44:39:669 [ADB] sha256 hash did match for 'appium-uiautomator2-server-debug-androidTest.apk'
2022-10-18 07:44:39:669 [ADB] 'C:\Users\Shilpa\AppData\Roaming\npm\node_modules\appium\node_modules\appium-uiautomator2-server\apks\appium-uiautomator2-server-debug-androidTest.apk' is signed with the default certificate
2022-10-18 07:44:39:669 [UiAutomator2] Server packages are not going to be (re)installed
2022-10-18 07:44:39:672 [UiAutomator2] Waiting up to 30000ms for services to be available
2022-10-18 07:44:39:672 [ADB] Running 'C:\Users\Shilpa\AppData\Local\Android\Sdk\platform-tools\adb.exe -P 5037 -s emulator-5554 shell pm list instrumentation'
2022-10-18 07:44:39:759 [UiAutomator2] Instrumentation target 'io.appium.uiautomator2.server.test/androidx.test.runner.AndroidJUnitRunner' is available
2022-10-18 07:44:39:764 [ADB] Adding packages ["io.appium.settings","io.appium.uiautomator2.server","io.appium.uiautomator2.server.test"] to Doze whitelist
2022-10-18 07:44:39:764 [ADB] Got the following command chunks to execute: [["dumpsys","deviceidle","whitelist","+io.appium.settings",";","dumpsys","deviceidle","whitelist","+io.appium.uiautomator2.server",";","dumpsys","deviceidle","whitelist","+io.appium.uiautomator2.server.test",";"]]
2022-10-18 07:44:39:765 [ADB] Running 'C:\Users\Shilpa\AppData\Local\Android\Sdk\platform-tools\adb.exe -P 5037 -s emulator-5554 shell dumpsys deviceidle whitelist +io.appium.settings ; dumpsys deviceidle whitelist +io.appium.uiautomator2.server ; dumpsys deviceidle whitelist +io.appium.uiautomator2.server.test ;'
2022-10-18 07:44:39:962 [ADB] Checking app cert for C:\Users\Shilpa\Documents\New_Sri_Mandir\SRI_MANDIR(Different languages)\src\main\java\resources\app-debug-3.7.5.apk
2022-10-18 07:44:40:243 [ADB] Starting apksigner: 'C:\\Program Files\\Java\\jdk1.8.0_291\\bin\\java.exe' -Xmx1024M -Xss1m -jar C:\\Users\\Shilpa\\AppData\\Local\\Android\\Sdk\\build-tools\\33.0.0\\lib\\apksigner.jar verify --print-certs 'C:\\Users\\Shilpa\\Documents\\New_Sri_Mandir\\SRI_MANDIR(Different languages)\\src\\main\\java\\resources\\app-debug-3.7.5.apk'
2022-10-18 07:44:44:836 [ADB] apksigner stdout: Signer #1 certificate DN: C=US, O=Android, CN=Android Debug
2022-10-18 07:44:44:836 [ADB] Signer #1 certificate SHA-256 digest: 468f8d0eca3bb01d2f428ec8b54a99b3813d746f45499a1b98320fb67de13b88
2022-10-18 07:44:44:836 [ADB] Signer #1 certificate SHA-1 digest: 6af3fb8b6c2faff18497cde281bcb0971856f899
2022-10-18 07:44:44:836 [ADB] Signer #1 certificate MD5 digest: 80c2152efe8fbaf12745baabbb4c6045
2022-10-18 07:44:44:836 [ADB] 
2022-10-18 07:44:44:837 [ADB] 'C:\Users\Shilpa\Documents\New_Sri_Mandir\SRI_MANDIR(Different languages)\src\main\java\resources\app-debug-3.7.5.apk' is signed with a non-default certificate
2022-10-18 07:44:44:837 [ADB] Getting install status for com.mandir
2022-10-18 07:44:44:837 [ADB] Running 'C:\Users\Shilpa\AppData\Local\Android\Sdk\platform-tools\adb.exe -P 5037 -s emulator-5554 shell dumpsys package com.mandir'
2022-10-18 07:44:44:919 [ADB] 'com.mandir' is installed
2022-10-18 07:44:44:919 [ADB] Getting package info for 'com.mandir'
2022-10-18 07:44:44:919 [ADB] Running 'C:\Users\Shilpa\AppData\Local\Android\Sdk\platform-tools\adb.exe -P 5037 -s emulator-5554 shell dumpsys package com.mandir'
2022-10-18 07:44:45:141 [ADB] The version name of the installed 'com.mandir' is greater or equal to the application version name ('3.7.5' >= '3.7.5')
2022-10-18 07:44:45:142 [ADB] There is no need to install/upgrade 'C:\Users\Shilpa\Documents\New_Sri_Mandir\SRI_MANDIR(Different languages)\src\main\java\resources\app-debug-3.7.5.apk'
2022-10-18 07:44:45:143 [UiAutomator2] Performing shallow cleanup of automation leftovers
2022-10-18 07:44:45:189 [UiAutomator2] The following obsolete sessions are still running: ["c6883409-55a8-4d51-972c-95728cecf479"]
2022-10-18 07:44:45:194 [UiAutomator2] Cleaning up 1 obsolete session
2022-10-18 07:44:46:254 [ADB] Running 'C:\Users\Shilpa\AppData\Local\Android\Sdk\platform-tools\adb.exe -P 5037 -s emulator-5554 shell am force-stop io.appium.uiautomator2.server.test'
2022-10-18 07:44:46:367 [UiAutomator2] Starting UIAutomator2 server 4.27.0
2022-10-18 07:44:46:368 [UiAutomator2] Using UIAutomator2 server from 'C:\Users\Shilpa\AppData\Roaming\npm\node_modules\appium\node_modules\appium-uiautomator2-server\apks\appium-uiautomator2-server-v4.27.0.apk' and test from 'C:\Users\Shilpa\AppData\Roaming\npm\node_modules\appium\node_modules\appium-uiautomator2-server\apks\appium-uiautomator2-server-debug-androidTest.apk'
2022-10-18 07:44:46:368 [UiAutomator2] Waiting up to 30000ms for UiAutomator2 to be online...
2022-10-18 07:44:46:369 [ADB] Creating ADB subprocess with args: ["-P",5037,"-s","emulator-5554","shell","am","instrument","-w","-e","disableAnalytics",true,"io.appium.uiautomator2.server.test/androidx.test.runner.AndroidJUnitRunner"]
2022-10-18 07:44:46:383 [WD Proxy] Matched '/status' to command name 'getStatus'
2022-10-18 07:44:46:387 [WD Proxy] Proxying [GET /status] to [GET http://127.0.0.1:8212/wd/hub/status] with no body
2022-10-18 07:44:46:410 [WD Proxy] socket hang up
2022-10-18 07:44:47:228 [Instrumentation] io.appium.uiautomator2.server.test.AppiumUiAutomator2Server:
2022-10-18 07:44:47:422 [WD Proxy] Matched '/status' to command name 'getStatus'
2022-10-18 07:44:47:424 [WD Proxy] Proxying [GET /status] to [GET http://127.0.0.1:8212/wd/hub/status] with no body
2022-10-18 07:44:47:448 [WD Proxy] socket hang up
2022-10-18 07:44:48:464 [WD Proxy] Matched '/status' to command name 'getStatus'
2022-10-18 07:44:48:464 [WD Proxy] Proxying [GET /status] to [GET http://127.0.0.1:8212/wd/hub/status] with no body
2022-10-18 07:44:48:472 [WD Proxy] socket hang up
2022-10-18 07:44:49:484 [WD Proxy] Matched '/status' to command name 'getStatus'
2022-10-18 07:44:49:484 [WD Proxy] Proxying [GET /status] to [GET http://127.0.0.1:8212/wd/hub/status] with no body
2022-10-18 07:44:49:672 [WD Proxy] Got response with status 200: {"sessionId":"None","value":{"message":"UiAutomator2 Server is ready to accept commands","ready":true}}
2022-10-18 07:44:49:672 [UiAutomator2] The initialization of the instrumentation process took 3304ms
2022-10-18 07:44:49:672 [WD Proxy] Matched '/session' to command name 'createSession'
2022-10-18 07:44:49:673 [WD Proxy] Proxying [POST /session] to [POST http://127.0.0.1:8212/wd/hub/session] with body: {"capabilities":{"firstMatch":[{"platform":"ANDROID","webStorageEnabled":false,"takesScreenshot":true,"javascriptEnabled":true,"databaseEnabled":false,"networkConnectionEnabled":true,"locationContextEnabled":false,"warnings":{},"desired":{"platformName":"android","platform":"ANDROID","app":"./src/main/java/resources/app-debug-3.7.5.apk","autoGrantPermissions":true,"automationName":"UiAutomator2","noReset":true,"udid":"emulator-5554"},"platformName":"android","app":"./src/main/java/resources/app-debug-3.7.5.apk","autoGrantPermissions":true,"automationName":"UiAutomator2","noReset":true,"udid":"emulator-5554","deviceName":"emulator-5554","deviceUDID":"emulator-5554","appPackage":"com.mandir"}],"alwaysMatch":{}}}
2022-10-18 07:44:49:713 [WD Proxy] Got response with status 200: {"sessionId":"27ed4886-8913-46c9-bcdf-50cfb5d190d5","value":{"capabilities":{"firstMatch":[{"platform":"ANDROID","webStorageEnabled":false,"takesScreenshot":true,"javascriptEnabled":true,"databaseEnabled":false,"networkConnectionEnabled":true,"locationContextEnabled":false,"warnings":{},"desired":{"platformName":"android","platform":"ANDROID","app":"./src/main/java/resources/app-debug-3.7.5.apk","autoGrantPermissions":true,"automationName":"UiAutomator2","noReset":true,"udid":"emulator-5554"},"platformName":"android","app":"./src/main/java/resources/app-debug-3.7.5.apk","autoGrantPermissions":true,"automationName":"UiAutomator2","noReset":true,"udid":"emulator-5554","deviceName":"emulator-5554","deviceUDID":"emulator-5554","appPackage":"com.mandir"}],"alwaysMatch":{}},"sessionId":"27ed4886-8913-46c9-bcdf-50cfb5d190d5"}}
2022-10-18 07:44:49:713 [WD Proxy] Determined the downstream protocol as 'W3C'
2022-10-18 07:44:49:724 [WD Proxy] Proxying [GET /appium/device/info] to [GET http://127.0.0.1:8212/wd/hub/session/27ed4886-8913-46c9-bcdf-50cfb5d190d5/appium/device/info] with no body
2022-10-18 07:44:49:771 [WD Proxy] Got response with status 200: {"sessionId":"27ed4886-8913-46c9-bcdf-50cfb5d190d5","value":{"androidId":"b679943b0277a210","apiVersion":"31","bluetooth":{"state":"ON"},"brand":"google","carrierName":"T-Mobile","displayDensity":420,"locale":"en_US","manufacturer":"Google","model":"sdk_gphone64_x86_64","networks":[{"capabilities":{"SSID":null,"linkDownBandwidthKbps":30000,"linkUpstreamBandwidthKbps":12000,"networkCapabilities":"NET_CAPABILITY_NOT_METERED,NET_CAPABILITY_INTERNET,NET_CAPABILITY_NOT_RESTRICTED,NET_CAPABILITY_TRUSTED,NET_CAPABILITY_NOT_VPN,NET_CAPABILITY_VALIDATED,NET_CAPABILITY_NOT_ROAMING,NET_CAPABILITY_FOREGROUND,NET_CAPABILITY_NOT_CONGESTED,NET_CAPABILITY_NOT_SUSPENDED","signalStrength":-50,"transportTypes":"TRANSPORT_WIFI"},"detailedState":"CONNECTED","extraInfo":"","isAvailable":true,"isConnected":true,"isFailover":false,"isRoaming":false,"state":"CONNECTED","subtype":-1,"subtypeName":"","type":1,"typeName":"WIFI"},{"capabilities":{"SSID":null,"linkDownBandwidthKbps":4300,"linkUpstreamBandwidthKbps":1800,"networkCapabil...
2022-10-18 07:44:49:772 [ADB] Running 'C:\Users\Shilpa\AppData\Local\Android\Sdk\platform-tools\adb.exe -P 5037 -s emulator-5554 shell dumpsys window'
2022-10-18 07:44:49:845 [AndroidDriver] Screen already unlocked, doing nothing
2022-10-18 07:44:49:846 [UiAutomator2] Starting 'com.mandir/com.mandir.ui.activity.SplashActivity and waiting for 'com.mandir/com.mandir.ui.activity.SplashActivity'
2022-10-18 07:44:49:846 [ADB] Running 'C:\Users\Shilpa\AppData\Local\Android\Sdk\platform-tools\adb.exe -P 5037 -s emulator-5554 shell am start -W -n com.mandir/com.mandir.ui.activity.SplashActivity -S -a android.intent.action.MAIN -c android.intent.category.LAUNCHER -f 0x10200000'
2022-10-18 07:44:55:093 [ADB] Waiting up to 20000ms for activity matching pkg: 'com.mandir' and activity: 'com.mandir.ui.activity.SplashActivity' to be focused
2022-10-18 07:44:55:093 [ADB] Possible activities, to be checked: 'com.mandir.ui.activity.SplashActivity', 'com.mandir.com.mandir.ui.activity.SplashActivity'
2022-10-18 07:44:55:094 [ADB] Getting focused package and activity
2022-10-18 07:44:55:094 [ADB] Running 'C:\Users\Shilpa\AppData\Local\Android\Sdk\platform-tools\adb.exe -P 5037 -s emulator-5554 shell dumpsys window displays'
2022-10-18 07:44:55:189 [ADB] Found package: 'com.mandir' and fully qualified activity name : 'com.mandir.ui.activity.SplashActivity'
2022-10-18 07:44:55:202 [WD Proxy] Proxying [GET /appium/device/pixel_ratio] to [GET http://127.0.0.1:8212/wd/hub/session/27ed4886-8913-46c9-bcdf-50cfb5d190d5/appium/device/pixel_ratio] with no body
2022-10-18 07:44:55:220 [WD Proxy] Got response with status 200: {"sessionId":"27ed4886-8913-46c9-bcdf-50cfb5d190d5","value":2.625}
2022-10-18 07:44:55:222 [WD Proxy] Matched '/appium/device/system_bars' to command name 'getSystemBars'
2022-10-18 07:44:55:222 [WD Proxy] Proxying [GET /appium/device/system_bars] to [GET http://127.0.0.1:8212/wd/hub/session/27ed4886-8913-46c9-bcdf-50cfb5d190d5/appium/device/system_bars] with no body
2022-10-18 07:44:55:243 [WD Proxy] Got response with status 200: {"sessionId":"27ed4886-8913-46c9-bcdf-50cfb5d190d5","value":{"statusBar":63}}
2022-10-18 07:44:55:247 [WD Proxy] Matched '/window/current/size' to command name 'getWindowSize'
2022-10-18 07:44:55:247 [WD Proxy] Proxying [GET /window/current/size] to [GET http://127.0.0.1:8212/wd/hub/session/27ed4886-8913-46c9-bcdf-50cfb5d190d5/window/current/size] with no body
2022-10-18 07:44:55:265 [WD Proxy] Got response with status 200: {"sessionId":"27ed4886-8913-46c9-bcdf-50cfb5d190d5","value":{"height":1794,"width":1080}}
2022-10-18 07:44:55:266 [Appium] New AndroidUiautomator2Driver session created successfully, session 72e71f04-f634-45c3-898f-bed72e95f117 added to master session list
2022-10-18 07:44:55:267 [BaseDriver] Event 'newSessionStarted' logged at 1666079095266 (13:14:55 GMT+0530 (India Standard Time))
2022-10-18 07:44:55:267 [W3C (72e71f04)] Cached the protocol value 'W3C' for the new session 72e71f04-f634-45c3-898f-bed72e95f117
2022-10-18 07:44:55:267 [W3C (72e71f04)] Responding to client with driver.createSession() result: {"capabilities":{"platform":"ANDROID","webStorageEnabled":false,"takesScreenshot":true,"javascriptEnabled":true,"databaseEnabled":false,"networkConnectionEnabled":true,"locationContextEnabled":false,"warnings":{},"desired":{"platformName":"android","platform":"ANDROID","app":"./src/main/java/resources/app-debug-3.7.5.apk","autoGrantPermissions":true,"automationName":"UiAutomator2","noReset":true,"udid":"emulator-5554"},"platformName":"android","app":"./src/main/java/resources/app-debug-3.7.5.apk","autoGrantPermissions":true,"automationName":"UiAutomator2","noReset":true,"udid":"emulator-5554","deviceName":"emulator-5554","deviceUDID":"emulator-5554","appPackage":"com.mandir","deviceApiLevel":31,"platformVersion":"12","deviceScreenSize":"1080x1920","deviceScreenDensity":420,"deviceModel":"sdk_gphone64_x86_64","deviceManufacturer":"Google","pixelRatio":2.625,"statBarHeight":63,"viewportRect":{"left":0,"top":63,"width":1080,"height":1731}}}
2022-10-18 07:44:55:270 [HTTP] <-- POST /wd/hub/session 200 19315 ms - 1012
2022-10-18 07:44:55:270 [HTTP] 
2022-10-18 07:44:55:343 [HTTP] --> GET /wd/hub/session/72e71f04-f634-45c3-898f-bed72e95f117
2022-10-18 07:44:55:343 [HTTP] {}
2022-10-18 07:44:55:345 [W3C (72e71f04)] Calling AppiumDriver.getSession() with args: ["72e71f04-f634-45c3-898f-bed72e95f117"]
2022-10-18 07:44:55:345 [UiAutomator2] Getting session details from server to mix in
2022-10-18 07:44:55:346 [WD Proxy] Matched '/' to command name 'getSession'
2022-10-18 07:44:55:346 [WD Proxy] Proxying [GET /] to [GET http://127.0.0.1:8212/wd/hub/session/27ed4886-8913-46c9-bcdf-50cfb5d190d5] with no body
2022-10-18 07:44:55:366 [WD Proxy] Got response with status 200: {"sessionId":"27ed4886-8913-46c9-bcdf-50cfb5d190d5","value":{"lastScrollData":null}}
2022-10-18 07:44:55:367 [W3C (72e71f04)] Responding to client with driver.getSession() result: {"platform":"ANDROID","webStorageEnabled":false,"takesScreenshot":true,"javascriptEnabled":true,"databaseEnabled":false,"networkConnectionEnabled":true,"locationContextEnabled":false,"warnings":{},"desired":{"platformName":"android","platform":"ANDROID","app":"./src/main/java/resources/app-debug-3.7.5.apk","autoGrantPermissions":true,"automationName":"UiAutomator2","noReset":true,"udid":"emulator-5554"},"platformName":"android","app":"./src/main/java/resources/app-debug-3.7.5.apk","autoGrantPermissions":true,"automationName":"UiAutomator2","noReset":true,"udid":"emulator-5554","deviceName":"emulator-5554","deviceUDID":"emulator-5554","appPackage":"com.mandir","deviceApiLevel":31,"platformVersion":"12","deviceScreenSize":"1080x1920","deviceScreenDensity":420,"deviceModel":"sdk_gphone64_x86_64","deviceManufacturer":"Google","pixelRatio":2.625,"statBarHeight":63,"viewportRect":{"left":0,"top":63,"width":1080,"height":1731},"lastScrollData":null}
2022-10-18 07:44:55:368 [HTTP] <-- GET /wd/hub/session/72e71f04-f634-45c3-898f-bed72e95f117 200 25 ms - 966
2022-10-18 07:44:55:368 [HTTP] 
2022-10-18 07:44:55:377 [HTTP] --> GET /wd/hub/session/72e71f04-f634-45c3-898f-bed72e95f117
2022-10-18 07:44:55:378 [HTTP] {}
2022-10-18 07:44:55:379 [W3C (72e71f04)] Calling AppiumDriver.getSession() with args: ["72e71f04-f634-45c3-898f-bed72e95f117"]
2022-10-18 07:44:55:379 [UiAutomator2] Getting session details from server to mix in
2022-10-18 07:44:55:379 [WD Proxy] Matched '/' to command name 'getSession'
2022-10-18 07:44:55:379 [WD Proxy] Proxying [GET /] to [GET http://127.0.0.1:8212/wd/hub/session/27ed4886-8913-46c9-bcdf-50cfb5d190d5] with no body
2022-10-18 07:44:55:404 [WD Proxy] Got response with status 200: {"sessionId":"27ed4886-8913-46c9-bcdf-50cfb5d190d5","value":{"lastScrollData":null}}
2022-10-18 07:44:55:405 [W3C (72e71f04)] Responding to client with driver.getSession() result: {"platform":"ANDROID","webStorageEnabled":false,"takesScreenshot":true,"javascriptEnabled":true,"databaseEnabled":false,"networkConnectionEnabled":true,"locationContextEnabled":false,"warnings":{},"desired":{"platformName":"android","platform":"ANDROID","app":"./src/main/java/resources/app-debug-3.7.5.apk","autoGrantPermissions":true,"automationName":"UiAutomator2","noReset":true,"udid":"emulator-5554"},"platformName":"android","app":"./src/main/java/resources/app-debug-3.7.5.apk","autoGrantPermissions":true,"automationName":"UiAutomator2","noReset":true,"udid":"emulator-5554","deviceName":"emulator-5554","deviceUDID":"emulator-5554","appPackage":"com.mandir","deviceApiLevel":31,"platformVersion":"12","deviceScreenSize":"1080x1920","deviceScreenDensity":420,"deviceModel":"sdk_gphone64_x86_64","deviceManufacturer":"Google","pixelRatio":2.625,"statBarHeight":63,"viewportRect":{"left":0,"top":63,"width":1080,"height":1731},"lastScrollData":null}
2022-10-18 07:44:55:406 [HTTP] <-- GET /wd/hub/session/72e71f04-f634-45c3-898f-bed72e95f117 200 28 ms - 966
2022-10-18 07:44:55:406 [HTTP] 
2022-10-18 07:44:55:418 [HTTP] --> POST /wd/hub/session/72e71f04-f634-45c3-898f-bed72e95f117/timeouts
2022-10-18 07:44:55:418 [HTTP] {"implicit":10000}
2022-10-18 07:44:55:420 [W3C (72e71f04)] Calling AppiumDriver.timeouts() with args: [null,null,null,null,10000,"72e71f04-f634-45c3-898f-bed72e95f117"]
2022-10-18 07:44:55:422 [BaseDriver] W3C timeout argument: {"implicit":10000}}
2022-10-18 07:44:55:422 [BaseDriver] Set implicit wait to 10000ms
2022-10-18 07:44:55:423 [W3C (72e71f04)] Responding to client with driver.timeouts() result: null
2022-10-18 07:44:55:424 [HTTP] <-- POST /wd/hub/session/72e71f04-f634-45c3-898f-bed72e95f117/timeouts 200 6 ms - 14
2022-10-18 07:44:55:424 [HTTP] 
2022-10-18 07:44:55:498 [HTTP] --> POST /wd/hub/session/72e71f04-f634-45c3-898f-bed72e95f117/element
2022-10-18 07:44:55:499 [HTTP] {"using":"xpath","value":"//android.widget.TextView[@text='महाभंडार']"}
2022-10-18 07:44:55:503 [W3C (72e71f04)] Calling AppiumDriver.findElement() with args: ["xpath","//android.widget.TextView[@text='महाभंडार']","72e71f04-f634-45c3-898f-bed72e95f117"]
2022-10-18 07:44:55:503 [BaseDriver] Valid locator strategies for this request: xpath, id, class name, accessibility id, css selector, -android uiautomator
2022-10-18 07:44:55:504 [BaseDriver] Waiting up to 10000 ms for condition
2022-10-18 07:44:55:505 [WD Proxy] Matched '/element' to command name 'findElement'
2022-10-18 07:44:55:505 [WD Proxy] Proxying [POST /element] to [POST http://127.0.0.1:8212/wd/hub/session/27ed4886-8913-46c9-bcdf-50cfb5d190d5/element] with body: {"strategy":"xpath","selector":"//android.widget.TextView[@text='महाभंडार']","context":"","multiple":false}
2022-10-18 07:44:56:615 [WD Proxy] Got response with status 404: {"sessionId":"27ed4886-8913-46c9-bcdf-50cfb5d190d5","value":{"error":"no such element","message":"An element could not be located on the page using the given search parameters","stacktrace":"io.appium.uiautomator2.common.exceptions.ElementNotFoundException: An element could not be located on the page using the given search parameters\n\tat io.appium.uiautomator2.handler.FindElement.findElement(FindElement.java:90)\n\tat io.appium.uiautomator2.handler.FindElement.safeHandle(FindElement.java:67)\n\tat io.appium.uiautomator2.handler.request.SafeRequestHandler.handle(SafeRequestHandler.java:59)\n\tat io.appium.uiautomator2.server.AppiumServlet.handleRequest(AppiumServlet.java:266)\n\tat io.appium.uiautomator2.server.AppiumServlet.handleHttpRequest(AppiumServlet.java:260)\n\tat io.appium.uiautomator2.http.ServerHandler.channelRead(ServerHandler.java:68)\n\tat io.netty.channel.AbstractChannelHandlerContext.invokeChannelRead(AbstractChannelHandlerContext.java:366)\n\tat io.netty.channel.AbstractChannelHandlerCont...
2022-10-18 07:44:56:616 [W3C] Matched W3C error code 'no such element' to NoSuchElementError
2022-10-18 07:44:56:617 [BaseDriver] Waited for 1113 ms so far
2022-10-18 07:44:57:122 [WD Proxy] Matched '/element' to command name 'findElement'
2022-10-18 07:44:57:123 [WD Proxy] Proxying [POST /element] to [POST http://127.0.0.1:8212/wd/hub/session/27ed4886-8913-46c9-bcdf-50cfb5d190d5/element] with body: {"strategy":"xpath","selector":"//android.widget.TextView[@text='महाभंडार']","context":"","multiple":false}
2022-10-18 07:44:59:683 [WD Proxy] Got response with status 404: {"sessionId":"27ed4886-8913-46c9-bcdf-50cfb5d190d5","value":{"error":"no such element","message":"An element could not be located on the page using the given search parameters","stacktrace":"io.appium.uiautomator2.common.exceptions.ElementNotFoundException: An element could not be located on the page using the given search parameters\n\tat io.appium.uiautomator2.handler.FindElement.findElement(FindElement.java:90)\n\tat io.appium.uiautomator2.handler.FindElement.safeHandle(FindElement.java:67)\n\tat io.appium.uiautomator2.handler.request.SafeRequestHandler.handle(SafeRequestHandler.java:59)\n\tat io.appium.uiautomator2.server.AppiumServlet.handleRequest(AppiumServlet.java:266)\n\tat io.appium.uiautomator2.server.AppiumServlet.handleHttpRequest(AppiumServlet.java:260)\n\tat io.appium.uiautomator2.http.ServerHandler.channelRead(ServerHandler.java:68)\n\tat io.netty.channel.AbstractChannelHandlerContext.invokeChannelRead(AbstractChannelHandlerContext.java:366)\n\tat io.netty.channel.AbstractChannelHandlerCont...
2022-10-18 07:44:59:684 [W3C] Matched W3C error code 'no such element' to NoSuchElementError
2022-10-18 07:44:59:685 [BaseDriver] Waited for 4181 ms so far
2022-10-18 07:45:00:193 [WD Proxy] Matched '/element' to command name 'findElement'
2022-10-18 07:45:00:194 [WD Proxy] Proxying [POST /element] to [POST http://127.0.0.1:8212/wd/hub/session/27ed4886-8913-46c9-bcdf-50cfb5d190d5/element] with body: {"strategy":"xpath","selector":"//android.widget.TextView[@text='महाभंडार']","context":"","multiple":false}
2022-10-18 07:45:05:005 [WD Proxy] Got response with status 200: {"sessionId":"27ed4886-8913-46c9-bcdf-50cfb5d190d5","value":{"ELEMENT":"00000000-0000-0100-ffff-ffff00000031","element-6066-11e4-a52e-4f735466cecf":"00000000-0000-0100-ffff-ffff00000031"}}
2022-10-18 07:45:05:006 [W3C (72e71f04)] Responding to client with driver.findElement() result: {"element-6066-11e4-a52e-4f735466cecf":"00000000-0000-0100-ffff-ffff00000031","ELEMENT":"00000000-0000-0100-ffff-ffff00000031"}
2022-10-18 07:45:05:007 [HTTP] <-- POST /wd/hub/session/72e71f04-f634-45c3-898f-bed72e95f117/element 200 9508 ms - 137
2022-10-18 07:45:05:008 [HTTP] 
2022-10-18 07:45:05:024 [HTTP] --> GET /wd/hub/session/72e71f04-f634-45c3-898f-bed72e95f117/element/00000000-0000-0100-ffff-ffff00000031/displayed
2022-10-18 07:45:05:024 [HTTP] {}
2022-10-18 07:45:05:028 [W3C (72e71f04)] Calling AppiumDriver.elementDisplayed() with args: ["00000000-0000-0100-ffff-ffff00000031","72e71f04-f634-45c3-898f-bed72e95f117"]
2022-10-18 07:45:05:029 [WD Proxy] Matched '/element/00000000-0000-0100-ffff-ffff00000031/attribute/displayed' to command name 'getAttribute'
2022-10-18 07:45:05:029 [WD Proxy] Proxying [GET /element/00000000-0000-0100-ffff-ffff00000031/attribute/displayed] to [GET http://127.0.0.1:8212/wd/hub/session/27ed4886-8913-46c9-bcdf-50cfb5d190d5/element/00000000-0000-0100-ffff-ffff00000031/attribute/displayed] with no body
2022-10-18 07:45:05:137 [WD Proxy] Got response with status 200: {"sessionId":"27ed4886-8913-46c9-bcdf-50cfb5d190d5","value":"true"}
2022-10-18 07:45:05:138 [W3C (72e71f04)] Responding to client with driver.elementDisplayed() result: true
2022-10-18 07:45:05:139 [HTTP] <-- GET /wd/hub/session/72e71f04-f634-45c3-898f-bed72e95f117/element/00000000-0000-0100-ffff-ffff00000031/displayed 200 115 ms - 14
2022-10-18 07:45:05:139 [HTTP] 
2022-10-18 07:45:05:146 [HTTP] --> POST /wd/hub/session/72e71f04-f634-45c3-898f-bed72e95f117/element
2022-10-18 07:45:05:146 [HTTP] {"using":"xpath","value":"//android.widget.TextView[@text='महाभंडार']"}
2022-10-18 07:45:05:146 [W3C (72e71f04)] Calling AppiumDriver.findElement() with args: ["xpath","//android.widget.TextView[@text='महाभंडार']","72e71f04-f634-45c3-898f-bed72e95f117"]
2022-10-18 07:45:05:147 [BaseDriver] Valid locator strategies for this request: xpath, id, class name, accessibility id, css selector, -android uiautomator
2022-10-18 07:45:05:147 [BaseDriver] Waiting up to 10000 ms for condition
2022-10-18 07:45:05:147 [WD Proxy] Matched '/element' to command name 'findElement'
2022-10-18 07:45:05:148 [WD Proxy] Proxying [POST /element] to [POST http://127.0.0.1:8212/wd/hub/session/27ed4886-8913-46c9-bcdf-50cfb5d190d5/element] with body: {"strategy":"xpath","selector":"//android.widget.TextView[@text='महाभंडार']","context":"","multiple":false}
2022-10-18 07:45:06:755 [WD Proxy] Got response with status 200: {"sessionId":"27ed4886-8913-46c9-bcdf-50cfb5d190d5","value":{"ELEMENT":"00000000-0000-0100-ffff-ffff00000031","element-6066-11e4-a52e-4f735466cecf":"00000000-0000-0100-ffff-ffff00000031"}}
2022-10-18 07:45:06:756 [W3C (72e71f04)] Responding to client with driver.findElement() result: {"element-6066-11e4-a52e-4f735466cecf":"00000000-0000-0100-ffff-ffff00000031","ELEMENT":"00000000-0000-0100-ffff-ffff00000031"}
2022-10-18 07:45:06:758 [HTTP] <-- POST /wd/hub/session/72e71f04-f634-45c3-898f-bed72e95f117/element 200 1612 ms - 137
2022-10-18 07:45:06:758 [HTTP] 
2022-10-18 07:45:06:764 [HTTP] --> POST /wd/hub/session/72e71f04-f634-45c3-898f-bed72e95f117/element/00000000-0000-0100-ffff-ffff00000031/click
2022-10-18 07:45:06:764 [HTTP] {"id":"00000000-0000-0100-ffff-ffff00000031"}
2022-10-18 07:45:06:765 [W3C (72e71f04)] Calling AppiumDriver.click() with args: ["00000000-0000-0100-ffff-ffff00000031","72e71f04-f634-45c3-898f-bed72e95f117"]
2022-10-18 07:45:06:766 [WD Proxy] Matched '/element/00000000-0000-0100-ffff-ffff00000031/click' to command name 'click'
2022-10-18 07:45:06:766 [WD Proxy] Proxying [POST /element/00000000-0000-0100-ffff-ffff00000031/click] to [POST http://127.0.0.1:8212/wd/hub/session/27ed4886-8913-46c9-bcdf-50cfb5d190d5/element/00000000-0000-0100-ffff-ffff00000031/click] with body: {"element":"00000000-0000-0100-ffff-ffff00000031"}
2022-10-18 07:45:06:947 [WD Proxy] Got response with status 200: {"sessionId":"27ed4886-8913-46c9-bcdf-50cfb5d190d5","value":null}
2022-10-18 07:45:06:948 [W3C (72e71f04)] Responding to client with driver.click() result: null
2022-10-18 07:45:06:949 [HTTP] <-- POST /wd/hub/session/72e71f04-f634-45c3-898f-bed72e95f117/element/00000000-0000-0100-ffff-ffff00000031/click 200 185 ms - 14
2022-10-18 07:45:06:949 [HTTP] 
2022-10-18 07:45:06:966 [HTTP] --> POST /wd/hub/session/72e71f04-f634-45c3-898f-bed72e95f117/element
2022-10-18 07:45:06:967 [HTTP] {"using":"xpath","value":"//android.widget.TextView[@text='होरा']"}
2022-10-18 07:45:06:968 [W3C (72e71f04)] Calling AppiumDriver.findElement() with args: ["xpath","//android.widget.TextView[@text='होरा']","72e71f04-f634-45c3-898f-bed72e95f117"]
2022-10-18 07:45:06:969 [BaseDriver] Valid locator strategies for this request: xpath, id, class name, accessibility id, css selector, -android uiautomator
2022-10-18 07:45:06:969 [BaseDriver] Waiting up to 10000 ms for condition
2022-10-18 07:45:06:969 [WD Proxy] Matched '/element' to command name 'findElement'
2022-10-18 07:45:06:969 [WD Proxy] Proxying [POST /element] to [POST http://127.0.0.1:8212/wd/hub/session/27ed4886-8913-46c9-bcdf-50cfb5d190d5/element] with body: {"strategy":"xpath","selector":"//android.widget.TextView[@text='होरा']","context":"","multiple":false}
2022-10-18 07:45:12:884 [WD Proxy] Got response with status 200: {"sessionId":"27ed4886-8913-46c9-bcdf-50cfb5d190d5","value":{"ELEMENT":"00000000-0000-0100-ffff-ffff00000184","element-6066-11e4-a52e-4f735466cecf":"00000000-0000-0100-ffff-ffff00000184"}}
2022-10-18 07:45:12:885 [W3C (72e71f04)] Responding to client with driver.findElement() result: {"element-6066-11e4-a52e-4f735466cecf":"00000000-0000-0100-ffff-ffff00000184","ELEMENT":"00000000-0000-0100-ffff-ffff00000184"}
2022-10-18 07:45:12:886 [HTTP] <-- POST /wd/hub/session/72e71f04-f634-45c3-898f-bed72e95f117/element 200 5920 ms - 137
2022-10-18 07:45:12:886 [HTTP] 
2022-10-18 07:45:12:891 [HTTP] --> GET /wd/hub/session/72e71f04-f634-45c3-898f-bed72e95f117/element/00000000-0000-0100-ffff-ffff00000184/displayed
2022-10-18 07:45:12:891 [HTTP] {}
2022-10-18 07:45:12:893 [W3C (72e71f04)] Calling AppiumDriver.elementDisplayed() with args: ["00000000-0000-0100-ffff-ffff00000184","72e71f04-f634-45c3-898f-bed72e95f117"]
2022-10-18 07:45:12:894 [WD Proxy] Matched '/element/00000000-0000-0100-ffff-ffff00000184/attribute/displayed' to command name 'getAttribute'
2022-10-18 07:45:12:894 [WD Proxy] Proxying [GET /element/00000000-0000-0100-ffff-ffff00000184/attribute/displayed] to [GET http://127.0.0.1:8212/wd/hub/session/27ed4886-8913-46c9-bcdf-50cfb5d190d5/element/00000000-0000-0100-ffff-ffff00000184/attribute/displayed] with no body
2022-10-18 07:45:13:036 [WD Proxy] Got response with status 200: {"sessionId":"27ed4886-8913-46c9-bcdf-50cfb5d190d5","value":"true"}
2022-10-18 07:45:13:036 [W3C (72e71f04)] Responding to client with driver.elementDisplayed() result: true
2022-10-18 07:45:13:037 [HTTP] <-- GET /wd/hub/session/72e71f04-f634-45c3-898f-bed72e95f117/element/00000000-0000-0100-ffff-ffff00000184/displayed 200 146 ms - 14
2022-10-18 07:45:13:038 [HTTP] 
2022-10-18 07:45:13:044 [HTTP] --> POST /wd/hub/session/72e71f04-f634-45c3-898f-bed72e95f117/element
2022-10-18 07:45:13:044 [HTTP] {"using":"xpath","value":"//android.widget.TextView[@text='होरा']"}
2022-10-18 07:45:13:045 [W3C (72e71f04)] Calling AppiumDriver.findElement() with args: ["xpath","//android.widget.TextView[@text='होरा']","72e71f04-f634-45c3-898f-bed72e95f117"]
2022-10-18 07:45:13:045 [BaseDriver] Valid locator strategies for this request: xpath, id, class name, accessibility id, css selector, -android uiautomator
2022-10-18 07:45:13:045 [BaseDriver] Waiting up to 10000 ms for condition
2022-10-18 07:45:13:045 [WD Proxy] Matched '/element' to command name 'findElement'
2022-10-18 07:45:13:045 [WD Proxy] Proxying [POST /element] to [POST http://127.0.0.1:8212/wd/hub/session/27ed4886-8913-46c9-bcdf-50cfb5d190d5/element] with body: {"strategy":"xpath","selector":"//android.widget.TextView[@text='होरा']","context":"","multiple":false}
2022-10-18 07:45:13:476 [WD Proxy] Got response with status 200: {"sessionId":"27ed4886-8913-46c9-bcdf-50cfb5d190d5","value":{"ELEMENT":"00000000-0000-0100-ffff-ffff00000184","element-6066-11e4-a52e-4f735466cecf":"00000000-0000-0100-ffff-ffff00000184"}}
2022-10-18 07:45:13:477 [W3C (72e71f04)] Responding to client with driver.findElement() result: {"element-6066-11e4-a52e-4f735466cecf":"00000000-0000-0100-ffff-ffff00000184","ELEMENT":"00000000-0000-0100-ffff-ffff00000184"}
2022-10-18 07:45:13:478 [HTTP] <-- POST /wd/hub/session/72e71f04-f634-45c3-898f-bed72e95f117/element 200 434 ms - 137
2022-10-18 07:45:13:478 [HTTP] 
2022-10-18 07:45:13:485 [HTTP] --> POST /wd/hub/session/72e71f04-f634-45c3-898f-bed72e95f117/element/00000000-0000-0100-ffff-ffff00000184/click
2022-10-18 07:45:13:485 [HTTP] {"id":"00000000-0000-0100-ffff-ffff00000184"}
2022-10-18 07:45:13:485 [W3C (72e71f04)] Calling AppiumDriver.click() with args: ["00000000-0000-0100-ffff-ffff00000184","72e71f04-f634-45c3-898f-bed72e95f117"]
2022-10-18 07:45:13:486 [WD Proxy] Matched '/element/00000000-0000-0100-ffff-ffff00000184/click' to command name 'click'
2022-10-18 07:45:13:486 [WD Proxy] Proxying [POST /element/00000000-0000-0100-ffff-ffff00000184/click] to [POST http://127.0.0.1:8212/wd/hub/session/27ed4886-8913-46c9-bcdf-50cfb5d190d5/element/00000000-0000-0100-ffff-ffff00000184/click] with body: {"element":"00000000-0000-0100-ffff-ffff00000184"}
2022-10-18 07:45:13:558 [WD Proxy] Got response with status 200: {"sessionId":"27ed4886-8913-46c9-bcdf-50cfb5d190d5","value":null}
2022-10-18 07:45:13:559 [W3C (72e71f04)] Responding to client with driver.click() result: null
2022-10-18 07:45:13:560 [HTTP] <-- POST /wd/hub/session/72e71f04-f634-45c3-898f-bed72e95f117/element/00000000-0000-0100-ffff-ffff00000184/click 200 75 ms - 14
2022-10-18 07:45:13:560 [HTTP] 
2022-10-18 07:45:13:569 [HTTP] --> POST /wd/hub/session/72e71f04-f634-45c3-898f-bed72e95f117/element
2022-10-18 07:45:13:569 [HTTP] {"using":"-android uiautomator","value":"new UiScrollable(new UiSelector().scrollable(true)).scrollToEnd(100000)"}
2022-10-18 07:45:13:570 [W3C (72e71f04)] Calling AppiumDriver.findElement() with args: ["-android uiautomator","new UiScrollable(new UiSelector().scrollable(true)).scrollToEnd(100000)","72e71f04-f634-45c3-898f-bed72e95f117"]
2022-10-18 07:45:13:570 [BaseDriver] Valid locator strategies for this request: xpath, id, class name, accessibility id, css selector, -android uiautomator
2022-10-18 07:45:13:571 [BaseDriver] Waiting up to 10000 ms for condition
2022-10-18 07:45:13:571 [WD Proxy] Matched '/element' to command name 'findElement'
2022-10-18 07:45:13:571 [WD Proxy] Proxying [POST /element] to [POST http://127.0.0.1:8212/wd/hub/session/27ed4886-8913-46c9-bcdf-50cfb5d190d5/element] with body: {"strategy":"-android uiautomator","selector":"new UiScrollable(new UiSelector().scrollable(true)).scrollToEnd(100000)","context":"","multiple":false}
2022-10-18 07:45:31:951 [WD Proxy] Got response with status 200: {"sessionId":"27ed4886-8913-46c9-bcdf-50cfb5d190d5","value":{"ELEMENT":"00000000-0000-0100-ffff-ffff00000041","element-6066-11e4-a52e-4f735466cecf":"00000000-0000-0100-ffff-ffff00000041"}}
2022-10-18 07:45:31:952 [W3C (72e71f04)] Responding to client with driver.findElement() result: {"element-6066-11e4-a52e-4f735466cecf":"00000000-0000-0100-ffff-ffff00000041","ELEMENT":"00000000-0000-0100-ffff-ffff00000041"}
2022-10-18 07:45:31:953 [HTTP] <-- POST /wd/hub/session/72e71f04-f634-45c3-898f-bed72e95f117/element 200 18383 ms - 137
2022-10-18 07:45:31:953 [HTTP] 
2022-10-18 07:45:31:960 [HTTP] --> POST /wd/hub/session/72e71f04-f634-45c3-898f-bed72e95f117/element
2022-10-18 07:45:31:960 [HTTP] {"using":"id","value":"com.mandir:id/cta_whatsapp_share"}
2022-10-18 07:45:31:960 [W3C (72e71f04)] Calling AppiumDriver.findElement() with args: ["id","com.mandir:id/cta_whatsapp_share","72e71f04-f634-45c3-898f-bed72e95f117"]
2022-10-18 07:45:31:960 [BaseDriver] Valid locator strategies for this request: xpath, id, class name, accessibility id, css selector, -android uiautomator
2022-10-18 07:45:31:960 [BaseDriver] Waiting up to 10000 ms for condition
2022-10-18 07:45:31:961 [WD Proxy] Matched '/element' to command name 'findElement'
2022-10-18 07:45:31:961 [WD Proxy] Proxying [POST /element] to [POST http://127.0.0.1:8212/wd/hub/session/27ed4886-8913-46c9-bcdf-50cfb5d190d5/element] with body: {"strategy":"id","selector":"com.mandir:id/cta_whatsapp_share","context":"","multiple":false}
2022-10-18 07:45:32:127 [WD Proxy] Got response with status 200: {"sessionId":"27ed4886-8913-46c9-bcdf-50cfb5d190d5","value":{"ELEMENT":"00000000-0000-0100-ffff-ffff000004f8","element-6066-11e4-a52e-4f735466cecf":"00000000-0000-0100-ffff-ffff000004f8"}}
2022-10-18 07:45:32:128 [W3C (72e71f04)] Responding to client with driver.findElement() result: {"element-6066-11e4-a52e-4f735466cecf":"00000000-0000-0100-ffff-ffff000004f8","ELEMENT":"00000000-0000-0100-ffff-ffff000004f8"}
2022-10-18 07:45:32:128 [HTTP] <-- POST /wd/hub/session/72e71f04-f634-45c3-898f-bed72e95f117/element 200 168 ms - 137
2022-10-18 07:45:32:128 [HTTP] 
2022-10-18 07:45:32:134 [HTTP] --> POST /wd/hub/session/72e71f04-f634-45c3-898f-bed72e95f117/element
2022-10-18 07:45:32:134 [HTTP] {"using":"id","value":"com.mandir:id/cta_whatsapp_share"}
2022-10-18 07:45:32:135 [W3C (72e71f04)] Calling AppiumDriver.findElement() with args: ["id","com.mandir:id/cta_whatsapp_share","72e71f04-f634-45c3-898f-bed72e95f117"]
2022-10-18 07:45:32:135 [BaseDriver] Valid locator strategies for this request: xpath, id, class name, accessibility id, css selector, -android uiautomator
2022-10-18 07:45:32:135 [BaseDriver] Waiting up to 10000 ms for condition
2022-10-18 07:45:32:135 [WD Proxy] Matched '/element' to command name 'findElement'
2022-10-18 07:45:32:135 [WD Proxy] Proxying [POST /element] to [POST http://127.0.0.1:8212/wd/hub/session/27ed4886-8913-46c9-bcdf-50cfb5d190d5/element] with body: {"strategy":"id","selector":"com.mandir:id/cta_whatsapp_share","context":"","multiple":false}
2022-10-18 07:45:32:371 [WD Proxy] Got response with status 200: {"sessionId":"27ed4886-8913-46c9-bcdf-50cfb5d190d5","value":{"ELEMENT":"00000000-0000-0100-ffff-ffff000004f8","element-6066-11e4-a52e-4f735466cecf":"00000000-0000-0100-ffff-ffff000004f8"}}
2022-10-18 07:45:32:372 [W3C (72e71f04)] Responding to client with driver.findElement() result: {"element-6066-11e4-a52e-4f735466cecf":"00000000-0000-0100-ffff-ffff000004f8","ELEMENT":"00000000-0000-0100-ffff-ffff000004f8"}
2022-10-18 07:45:32:372 [HTTP] <-- POST /wd/hub/session/72e71f04-f634-45c3-898f-bed72e95f117/element 200 238 ms - 137
2022-10-18 07:45:32:374 [HTTP] 
2022-10-18 07:45:32:376 [HTTP] --> GET /wd/hub/session/72e71f04-f634-45c3-898f-bed72e95f117/element/00000000-0000-0100-ffff-ffff000004f8/displayed
2022-10-18 07:45:32:376 [HTTP] {}
2022-10-18 07:45:32:377 [W3C (72e71f04)] Calling AppiumDriver.elementDisplayed() with args: ["00000000-0000-0100-ffff-ffff000004f8","72e71f04-f634-45c3-898f-bed72e95f117"]
2022-10-18 07:45:32:378 [WD Proxy] Matched '/element/00000000-0000-0100-ffff-ffff000004f8/attribute/displayed' to command name 'getAttribute'
2022-10-18 07:45:32:378 [WD Proxy] Proxying [GET /element/00000000-0000-0100-ffff-ffff000004f8/attribute/displayed] to [GET http://127.0.0.1:8212/wd/hub/session/27ed4886-8913-46c9-bcdf-50cfb5d190d5/element/00000000-0000-0100-ffff-ffff000004f8/attribute/displayed] with no body
2022-10-18 07:45:32:400 [WD Proxy] Got response with status 200: {"sessionId":"27ed4886-8913-46c9-bcdf-50cfb5d190d5","value":"true"}
2022-10-18 07:45:32:400 [W3C (72e71f04)] Responding to client with driver.elementDisplayed() result: true
2022-10-18 07:45:32:401 [HTTP] <-- GET /wd/hub/session/72e71f04-f634-45c3-898f-bed72e95f117/element/00000000-0000-0100-ffff-ffff000004f8/displayed 200 25 ms - 14
2022-10-18 07:45:32:401 [HTTP] 
2022-10-18 07:45:32:405 [HTTP] --> POST /wd/hub/session/72e71f04-f634-45c3-898f-bed72e95f117/element
2022-10-18 07:45:32:406 [HTTP] {"using":"id","value":"com.mandir:id/cta_whatsapp_share"}
2022-10-18 07:45:32:406 [W3C (72e71f04)] Calling AppiumDriver.findElement() with args: ["id","com.mandir:id/cta_whatsapp_share","72e71f04-f634-45c3-898f-bed72e95f117"]
2022-10-18 07:45:32:406 [BaseDriver] Valid locator strategies for this request: xpath, id, class name, accessibility id, css selector, -android uiautomator
2022-10-18 07:45:32:406 [BaseDriver] Waiting up to 10000 ms for condition
2022-10-18 07:45:32:407 [WD Proxy] Matched '/element' to command name 'findElement'
2022-10-18 07:45:32:407 [WD Proxy] Proxying [POST /element] to [POST http://127.0.0.1:8212/wd/hub/session/27ed4886-8913-46c9-bcdf-50cfb5d190d5/element] with body: {"strategy":"id","selector":"com.mandir:id/cta_whatsapp_share","context":"","multiple":false}
2022-10-18 07:45:32:622 [WD Proxy] Got response with status 200: {"sessionId":"27ed4886-8913-46c9-bcdf-50cfb5d190d5","value":{"ELEMENT":"00000000-0000-0100-ffff-ffff000004f8","element-6066-11e4-a52e-4f735466cecf":"00000000-0000-0100-ffff-ffff000004f8"}}
2022-10-18 07:45:32:623 [W3C (72e71f04)] Responding to client with driver.findElement() result: {"element-6066-11e4-a52e-4f735466cecf":"00000000-0000-0100-ffff-ffff000004f8","ELEMENT":"00000000-0000-0100-ffff-ffff000004f8"}
2022-10-18 07:45:32:623 [HTTP] <-- POST /wd/hub/session/72e71f04-f634-45c3-898f-bed72e95f117/element 200 218 ms - 137
2022-10-18 07:45:32:624 [HTTP] 
2022-10-18 07:45:32:629 [HTTP] --> POST /wd/hub/session/72e71f04-f634-45c3-898f-bed72e95f117/element
2022-10-18 07:45:32:629 [HTTP] {"using":"id","value":"com.mandir:id/cta_whatsapp_share"}
2022-10-18 07:45:32:630 [W3C (72e71f04)] Calling AppiumDriver.findElement() with args: ["id","com.mandir:id/cta_whatsapp_share","72e71f04-f634-45c3-898f-bed72e95f117"]
2022-10-18 07:45:32:630 [BaseDriver] Valid locator strategies for this request: xpath, id, class name, accessibility id, css selector, -android uiautomator
2022-10-18 07:45:32:630 [BaseDriver] Waiting up to 10000 ms for condition
2022-10-18 07:45:32:630 [WD Proxy] Matched '/element' to command name 'findElement'
2022-10-18 07:45:32:631 [WD Proxy] Proxying [POST /element] to [POST http://127.0.0.1:8212/wd/hub/session/27ed4886-8913-46c9-bcdf-50cfb5d190d5/element] with body: {"strategy":"id","selector":"com.mandir:id/cta_whatsapp_share","context":"","multiple":false}
2022-10-18 07:45:32:785 [WD Proxy] Got response with status 200: {"sessionId":"27ed4886-8913-46c9-bcdf-50cfb5d190d5","value":{"ELEMENT":"00000000-0000-0100-ffff-ffff000004f8","element-6066-11e4-a52e-4f735466cecf":"00000000-0000-0100-ffff-ffff000004f8"}}
2022-10-18 07:45:32:786 [W3C (72e71f04)] Responding to client with driver.findElement() result: {"element-6066-11e4-a52e-4f735466cecf":"00000000-0000-0100-ffff-ffff000004f8","ELEMENT":"00000000-0000-0100-ffff-ffff000004f8"}
2022-10-18 07:45:32:788 [HTTP] <-- POST /wd/hub/session/72e71f04-f634-45c3-898f-bed72e95f117/element 200 157 ms - 137
2022-10-18 07:45:32:788 [HTTP] 
2022-10-18 07:45:32:793 [HTTP] --> POST /wd/hub/session/72e71f04-f634-45c3-898f-bed72e95f117/element/00000000-0000-0100-ffff-ffff000004f8/click
2022-10-18 07:45:32:793 [HTTP] {"id":"00000000-0000-0100-ffff-ffff000004f8"}
2022-10-18 07:45:32:794 [W3C (72e71f04)] Calling AppiumDriver.click() with args: ["00000000-0000-0100-ffff-ffff000004f8","72e71f04-f634-45c3-898f-bed72e95f117"]
2022-10-18 07:45:32:794 [WD Proxy] Matched '/element/00000000-0000-0100-ffff-ffff000004f8/click' to command name 'click'
2022-10-18 07:45:32:794 [WD Proxy] Proxying [POST /element/00000000-0000-0100-ffff-ffff000004f8/click] to [POST http://127.0.0.1:8212/wd/hub/session/27ed4886-8913-46c9-bcdf-50cfb5d190d5/element/00000000-0000-0100-ffff-ffff000004f8/click] with body: {"element":"00000000-0000-0100-ffff-ffff000004f8"}
2022-10-18 07:45:32:871 [WD Proxy] Got response with status 200: {"sessionId":"27ed4886-8913-46c9-bcdf-50cfb5d190d5","value":null}
2022-10-18 07:45:32:872 [W3C (72e71f04)] Responding to client with driver.click() result: null
2022-10-18 07:45:32:872 [HTTP] <-- POST /wd/hub/session/72e71f04-f634-45c3-898f-bed72e95f117/element/00000000-0000-0100-ffff-ffff000004f8/click 200 79 ms - 14
2022-10-18 07:45:32:872 [HTTP] 
2022-10-18 07:45:32:877 [HTTP] --> POST /wd/hub/session/72e71f04-f634-45c3-898f-bed72e95f117/element
2022-10-18 07:45:32:877 [HTTP] {"using":"id","value":"android:id/content_preview_text"}
2022-10-18 07:45:32:878 [W3C (72e71f04)] Calling AppiumDriver.findElement() with args: ["id","android:id/content_preview_text","72e71f04-f634-45c3-898f-bed72e95f117"]
2022-10-18 07:45:32:878 [BaseDriver] Valid locator strategies for this request: xpath, id, class name, accessibility id, css selector, -android uiautomator
2022-10-18 07:45:32:878 [BaseDriver] Waiting up to 10000 ms for condition
2022-10-18 07:45:32:878 [WD Proxy] Matched '/element' to command name 'findElement'
2022-10-18 07:45:32:879 [WD Proxy] Proxying [POST /element] to [POST http://127.0.0.1:8212/wd/hub/session/27ed4886-8913-46c9-bcdf-50cfb5d190d5/element] with body: {"strategy":"id","selector":"android:id/content_preview_text","context":"","multiple":false}
2022-10-18 07:45:33:390 [WD Proxy] Got response with status 404: {"sessionId":"27ed4886-8913-46c9-bcdf-50cfb5d190d5","value":{"error":"no such element","message":"An element could not be located on the page using the given search parameters","stacktrace":"io.appium.uiautomator2.common.exceptions.ElementNotFoundException: An element could not be located on the page using the given search parameters\n\tat io.appium.uiautomator2.handler.FindElement.safeHandle(FindElement.java:70)\n\tat io.appium.uiautomator2.handler.request.SafeRequestHandler.handle(SafeRequestHandler.java:59)\n\tat io.appium.uiautomator2.server.AppiumServlet.handleRequest(AppiumServlet.java:266)\n\tat io.appium.uiautomator2.server.AppiumServlet.handleHttpRequest(AppiumServlet.java:260)\n\tat io.appium.uiautomator2.http.ServerHandler.channelRead(ServerHandler.java:68)\n\tat io.netty.channel.AbstractChannelHandlerContext.invokeChannelRead(AbstractChannelHandlerContext.java:366)\n\tat io.netty.channel.AbstractChannelHandlerContext.invokeChannelRead(AbstractChannelHandlerContext.java:352)\n\tat io.netty.chann...
2022-10-18 07:45:33:391 [W3C] Matched W3C error code 'no such element' to NoSuchElementError
2022-10-18 07:45:33:391 [BaseDriver] Waited for 513 ms so far
2022-10-18 07:45:33:902 [WD Proxy] Matched '/element' to command name 'findElement'
2022-10-18 07:45:33:902 [WD Proxy] Proxying [POST /element] to [POST http://127.0.0.1:8212/wd/hub/session/27ed4886-8913-46c9-bcdf-50cfb5d190d5/element] with body: {"strategy":"id","selector":"android:id/content_preview_text","context":"","multiple":false}
2022-10-18 07:45:34:807 [WD Proxy] Got response with status 200: {"sessionId":"27ed4886-8913-46c9-bcdf-50cfb5d190d5","value":{"ELEMENT":"00000000-0000-0101-ffff-ffff000003b5","element-6066-11e4-a52e-4f735466cecf":"00000000-0000-0101-ffff-ffff000003b5"}}
2022-10-18 07:45:34:807 [W3C (72e71f04)] Responding to client with driver.findElement() result: {"element-6066-11e4-a52e-4f735466cecf":"00000000-0000-0101-ffff-ffff000003b5","ELEMENT":"00000000-0000-0101-ffff-ffff000003b5"}
2022-10-18 07:45:34:809 [HTTP] <-- POST /wd/hub/session/72e71f04-f634-45c3-898f-bed72e95f117/element 200 1931 ms - 137
2022-10-18 07:45:34:809 [HTTP] 
2022-10-18 07:45:34:815 [HTTP] --> POST /wd/hub/session/72e71f04-f634-45c3-898f-bed72e95f117/element
2022-10-18 07:45:34:815 [HTTP] {"using":"id","value":"android:id/content_preview_text"}
2022-10-18 07:45:34:816 [W3C (72e71f04)] Calling AppiumDriver.findElement() with args: ["id","android:id/content_preview_text","72e71f04-f634-45c3-898f-bed72e95f117"]
2022-10-18 07:45:34:816 [BaseDriver] Valid locator strategies for this request: xpath, id, class name, accessibility id, css selector, -android uiautomator
2022-10-18 07:45:34:816 [BaseDriver] Waiting up to 10000 ms for condition
2022-10-18 07:45:34:817 [WD Proxy] Matched '/element' to command name 'findElement'
2022-10-18 07:45:34:817 [WD Proxy] Proxying [POST /element] to [POST http://127.0.0.1:8212/wd/hub/session/27ed4886-8913-46c9-bcdf-50cfb5d190d5/element] with body: {"strategy":"id","selector":"android:id/content_preview_text","context":"","multiple":false}
2022-10-18 07:45:34:849 [WD Proxy] Got response with status 200: {"sessionId":"27ed4886-8913-46c9-bcdf-50cfb5d190d5","value":{"ELEMENT":"00000000-0000-0101-ffff-ffff000003b5","element-6066-11e4-a52e-4f735466cecf":"00000000-0000-0101-ffff-ffff000003b5"}}
2022-10-18 07:45:34:849 [W3C (72e71f04)] Responding to client with driver.findElement() result: {"element-6066-11e4-a52e-4f735466cecf":"00000000-0000-0101-ffff-ffff000003b5","ELEMENT":"00000000-0000-0101-ffff-ffff000003b5"}
2022-10-18 07:45:34:850 [HTTP] <-- POST /wd/hub/session/72e71f04-f634-45c3-898f-bed72e95f117/element 200 35 ms - 137
2022-10-18 07:45:34:850 [HTTP] 
2022-10-18 07:45:34:853 [HTTP] --> GET /wd/hub/session/72e71f04-f634-45c3-898f-bed72e95f117/element/00000000-0000-0101-ffff-ffff000003b5/displayed
2022-10-18 07:45:34:853 [HTTP] {}
2022-10-18 07:45:34:853 [W3C (72e71f04)] Calling AppiumDriver.elementDisplayed() with args: ["00000000-0000-0101-ffff-ffff000003b5","72e71f04-f634-45c3-898f-bed72e95f117"]
2022-10-18 07:45:34:854 [WD Proxy] Matched '/element/00000000-0000-0101-ffff-ffff000003b5/attribute/displayed' to command name 'getAttribute'
2022-10-18 07:45:34:854 [WD Proxy] Proxying [GET /element/00000000-0000-0101-ffff-ffff000003b5/attribute/displayed] to [GET http://127.0.0.1:8212/wd/hub/session/27ed4886-8913-46c9-bcdf-50cfb5d190d5/element/00000000-0000-0101-ffff-ffff000003b5/attribute/displayed] with no body
2022-10-18 07:45:35:481 [WD Proxy] Got response with status 200: {"sessionId":"27ed4886-8913-46c9-bcdf-50cfb5d190d5","value":"true"}
2022-10-18 07:45:35:481 [W3C (72e71f04)] Responding to client with driver.elementDisplayed() result: true
2022-10-18 07:45:35:482 [HTTP] <-- GET /wd/hub/session/72e71f04-f634-45c3-898f-bed72e95f117/element/00000000-0000-0101-ffff-ffff000003b5/displayed 200 629 ms - 14
2022-10-18 07:45:35:482 [HTTP] 
2022-10-18 07:45:35:488 [HTTP] --> POST /wd/hub/session/72e71f04-f634-45c3-898f-bed72e95f117/element
2022-10-18 07:45:35:488 [HTTP] {"using":"id","value":"android:id/content_preview_text"}
2022-10-18 07:45:35:488 [W3C (72e71f04)] Calling AppiumDriver.findElement() with args: ["id","android:id/content_preview_text","72e71f04-f634-45c3-898f-bed72e95f117"]
2022-10-18 07:45:35:489 [BaseDriver] Valid locator strategies for this request: xpath, id, class name, accessibility id, css selector, -android uiautomator
2022-10-18 07:45:35:489 [BaseDriver] Waiting up to 10000 ms for condition
2022-10-18 07:45:35:489 [WD Proxy] Matched '/element' to command name 'findElement'
2022-10-18 07:45:35:489 [WD Proxy] Proxying [POST /element] to [POST http://127.0.0.1:8212/wd/hub/session/27ed4886-8913-46c9-bcdf-50cfb5d190d5/element] with body: {"strategy":"id","selector":"android:id/content_preview_text","context":"","multiple":false}
2022-10-18 07:45:35:550 [WD Proxy] Got response with status 200: {"sessionId":"27ed4886-8913-46c9-bcdf-50cfb5d190d5","value":{"ELEMENT":"00000000-0000-0101-ffff-ffff000003b5","element-6066-11e4-a52e-4f735466cecf":"00000000-0000-0101-ffff-ffff000003b5"}}
2022-10-18 07:45:35:551 [W3C (72e71f04)] Responding to client with driver.findElement() result: {"element-6066-11e4-a52e-4f735466cecf":"00000000-0000-0101-ffff-ffff000003b5","ELEMENT":"00000000-0000-0101-ffff-ffff000003b5"}
2022-10-18 07:45:35:551 [HTTP] <-- POST /wd/hub/session/72e71f04-f634-45c3-898f-bed72e95f117/element 200 64 ms - 137
2022-10-18 07:45:35:553 [HTTP] 
2022-10-18 07:45:35:555 [HTTP] --> GET /wd/hub/session/72e71f04-f634-45c3-898f-bed72e95f117/element/00000000-0000-0101-ffff-ffff000003b5/displayed
2022-10-18 07:45:35:556 [HTTP] {}
2022-10-18 07:45:35:556 [W3C (72e71f04)] Calling AppiumDriver.elementDisplayed() with args: ["00000000-0000-0101-ffff-ffff000003b5","72e71f04-f634-45c3-898f-bed72e95f117"]
2022-10-18 07:45:35:557 [WD Proxy] Matched '/element/00000000-0000-0101-ffff-ffff000003b5/attribute/displayed' to command name 'getAttribute'
2022-10-18 07:45:35:557 [WD Proxy] Proxying [GET /element/00000000-0000-0101-ffff-ffff000003b5/attribute/displayed] to [GET http://127.0.0.1:8212/wd/hub/session/27ed4886-8913-46c9-bcdf-50cfb5d190d5/element/00000000-0000-0101-ffff-ffff000003b5/attribute/displayed] with no body
2022-10-18 07:45:35:575 [WD Proxy] Got response with status 200: {"sessionId":"27ed4886-8913-46c9-bcdf-50cfb5d190d5","value":"true"}
2022-10-18 07:45:35:575 [W3C (72e71f04)] Responding to client with driver.elementDisplayed() result: true
2022-10-18 07:45:35:576 [HTTP] <-- GET /wd/hub/session/72e71f04-f634-45c3-898f-bed72e95f117/element/00000000-0000-0101-ffff-ffff000003b5/displayed 200 20 ms - 14
2022-10-18 07:45:35:576 [HTTP] 
2022-10-18 07:45:35:600 [HTTP] --> POST /wd/hub/session/72e71f04-f634-45c3-898f-bed72e95f117/appium/device/press_keycode
2022-10-18 07:45:35:600 [HTTP] {"keycode":4}
2022-10-18 07:45:35:604 [W3C (72e71f04)] Calling AppiumDriver.pressKeyCode() with args: [4,null,null,null,null,"72e71f04-f634-45c3-898f-bed72e95f117"]
2022-10-18 07:45:35:605 [WD Proxy] Matched '/appium/device/press_keycode' to command name 'pressKeyCode'
2022-10-18 07:45:35:605 [WD Proxy] Proxying [POST /appium/device/press_keycode] to [POST http://127.0.0.1:8212/wd/hub/session/27ed4886-8913-46c9-bcdf-50cfb5d190d5/appium/device/press_keycode] with body: {"keycode":4,"metastate":null,"flags":null}
2022-10-18 07:45:36:135 [WD Proxy] Got response with status 200: {"sessionId":"27ed4886-8913-46c9-bcdf-50cfb5d190d5","value":null}
2022-10-18 07:45:36:136 [W3C (72e71f04)] Responding to client with driver.pressKeyCode() result: null
2022-10-18 07:45:36:137 [HTTP] <-- POST /wd/hub/session/72e71f04-f634-45c3-898f-bed72e95f117/appium/device/press_keycode 200 537 ms - 14
2022-10-18 07:45:36:137 [HTTP] 
2022-10-18 07:45:36:149 [HTTP] --> POST /wd/hub/session/72e71f04-f634-45c3-898f-bed72e95f117/appium/app/close
2022-10-18 07:45:36:150 [HTTP] {}
2022-10-18 07:45:36:154 [W3C (72e71f04)] Calling AppiumDriver.closeApp() with args: ["72e71f04-f634-45c3-898f-bed72e95f117"]
2022-10-18 07:45:36:155 [ADB] Running 'C:\Users\Shilpa\AppData\Local\Android\Sdk\platform-tools\adb.exe -P 5037 -s emulator-5554 shell am force-stop com.mandir'
2022-10-18 07:45:36:513 [W3C (72e71f04)] Responding to client with driver.closeApp() result: null
2022-10-18 07:45:36:514 [HTTP] <-- POST /wd/hub/session/72e71f04-f634-45c3-898f-bed72e95f117/appium/app/close 200 365 ms - 14
2022-10-18 07:45:36:515 [HTTP] 
