2022-10-13 03:58:45:612 [Appium] Welcome to Appium v1.22.3
2022-10-13 03:58:45:613 [Appium] Non-default server args:
2022-10-13 03:58:45:614 [Appium]   address: 127.0.0.1
2022-10-13 03:58:45:614 [Appium]   port: 34718
2022-10-13 03:58:45:614 [Appium]   logFile: C:\Sri Mandir repo\SRI_MANDIR(Different languages)\.\ServerLogs\appiumSriMandirverifyingTheAarthiMode.log
2022-10-13 03:58:45:641 [Appium] Appium REST http interface listener started on 127.0.0.1:34718
2022-10-13 03:58:45:966 [HTTP] --> GET /wd/hub/status
2022-10-13 03:58:45:966 [HTTP] {}
2022-10-13 03:58:45:967 [GENERIC] Calling AppiumDriver.getStatus() with args: []
2022-10-13 03:58:45:968 [GENERIC] Responding to client with driver.getStatus() result: {"build":{"version":"1.22.3"}}
2022-10-13 03:58:45:974 [HTTP] <-- GET /wd/hub/status 200 7 ms - 68
2022-10-13 03:58:45:975 [HTTP] 
2022-10-13 03:58:46:359 [HTTP] --> POST /wd/hub/session
2022-10-13 03:58:46:360 [HTTP] {"desiredCapabilities":{"app":"./src/main/java/resources/app-debug-3.7.5.apk","noReset":true,"automationName":"UiAutomator2","autoGrantPermissions":true,"platformName":"Android","udid":"emulator-5554","platform":"ANDROID"},"capabilities":{"firstMatch":[{"appium:app":"./src/main/java/resources/app-debug-3.7.5.apk","appium:autoGrantPermissions":true,"appium:automationName":"UiAutomator2","appium:noReset":true,"platform":"ANDROID","platformName":"android","appium:udid":"emulator-5554"}]}}
2022-10-13 03:58:46:361 [W3C] Calling AppiumDriver.createSession() with args: [{"app":"./src/main/java/resources/app-debug-3.7.5.apk","noReset":true,"automationName":"UiAutomator2","autoGrantPermissions":true,"platformName":"Android","udid":"emulator-5554","platform":"ANDROID"},null,{"firstMatch":[{"appium:app":"./src/main/java/resources/app-debug-3.7.5.apk","appium:autoGrantPermissions":true,"appium:automationName":"UiAutomator2","appium:noReset":true,"platform":"ANDROID","platformName":"android","appium:udid":"emulator-5554"}]}]
2022-10-13 03:58:46:365 [BaseDriver] Event 'newSessionRequested' logged at 1665633526361 (09:28:46 GMT+0530 (India Standard Time))
2022-10-13 03:58:46:368 [BaseDriver] The following capabilities are not standard capabilities and should have an extension prefix:
2022-10-13 03:58:46:368 [BaseDriver]   platform
2022-10-13 03:58:46:678 [Appium] Appium v1.22.3 creating new AndroidUiautomator2Driver (v1.70.1) session
2022-10-13 03:58:46:680 [BaseDriver] W3C capabilities and MJSONWP desired capabilities were provided
2022-10-13 03:58:46:681 [BaseDriver] Creating session with W3C capabilities: {
2022-10-13 03:58:46:681 [BaseDriver]   "alwaysMatch": {
2022-10-13 03:58:46:681 [BaseDriver]     "appium:platform": "ANDROID",
2022-10-13 03:58:46:682 [BaseDriver]     "platformName": "android",
2022-10-13 03:58:46:682 [BaseDriver]     "appium:app": "./src/main/java/resources/app-debug-3.7.5.apk",
2022-10-13 03:58:46:682 [BaseDriver]     "appium:autoGrantPermissions": true,
2022-10-13 03:58:46:682 [BaseDriver]     "appium:automationName": "UiAutomator2",
2022-10-13 03:58:46:682 [BaseDriver]     "appium:noReset": true,
2022-10-13 03:58:46:682 [BaseDriver]     "appium:udid": "emulator-5554"
2022-10-13 03:58:46:682 [BaseDriver]   },
2022-10-13 03:58:46:682 [BaseDriver]   "firstMatch": [
2022-10-13 03:58:46:682 [BaseDriver]     {}
2022-10-13 03:58:46:682 [BaseDriver]   ]
2022-10-13 03:58:46:682 [BaseDriver] }
2022-10-13 03:58:46:687 [BaseDriver] The following capabilities were provided, but are not recognized by Appium:
2022-10-13 03:58:46:687 [BaseDriver]   platform
2022-10-13 03:58:46:688 [BaseDriver] Session created with session id: 6c9a288f-939b-4a0e-ac6d-bb516e8ef1a4
2022-10-13 03:58:46:690 [BaseDriver] Using local app './src/main/java/resources/app-debug-3.7.5.apk'
2022-10-13 03:58:46:690 [BaseDriver] The current application path './src/main/java/resources/app-debug-3.7.5.apk' is not absolute and has been rewritten to 'C:\Sri Mandir repo\SRI_MANDIR(Different languages)\src\main\java\resources\app-debug-3.7.5.apk'. Consider using absolute paths rather than relative
2022-10-13 03:58:46:690 [UiAutomator2] Checking whether app is actually present
2022-10-13 03:58:46:725 [ADB] Found 2 'build-tools' folders under 'C:\Users\Santhruptha\AppData\Local\Android\Sdk' (newest first):
2022-10-13 03:58:46:726 [ADB]     C:/Users/Santhruptha/AppData/Local/Android/Sdk/build-tools/33.0.0
2022-10-13 03:58:46:726 [ADB]     C:/Users/Santhruptha/AppData/Local/Android/Sdk/build-tools/30.0.3
2022-10-13 03:58:46:726 [ADB] Using 'adb.exe' from 'C:\Users\Santhruptha\AppData\Local\Android\Sdk\platform-tools\adb.exe'
2022-10-13 03:58:46:727 [ADB] Running 'C:\Users\Santhruptha\AppData\Local\Android\Sdk\platform-tools\adb.exe -P 5037 start-server'
2022-10-13 03:58:48:987 [AndroidDriver] Retrieving device list
2022-10-13 03:58:48:988 [ADB] Trying to find a connected android device
2022-10-13 03:58:48:989 [ADB] Getting connected devices
2022-10-13 03:58:49:018 [ADB] Connected devices: [{"udid":"emulator-5554","state":"authorizing"}]
2022-10-13 03:58:49:018 [AndroidDriver] Using device: emulator-5554
2022-10-13 03:58:49:020 [ADB] Using 'adb.exe' from 'C:\Users\Santhruptha\AppData\Local\Android\Sdk\platform-tools\adb.exe'
2022-10-13 03:58:49:020 [ADB] Running 'C:\Users\Santhruptha\AppData\Local\Android\Sdk\platform-tools\adb.exe -P 5037 start-server'
2022-10-13 03:58:49:046 [ADB] Setting device id to emulator-5554
2022-10-13 03:58:49:047 [ADB] Running 'C:\Users\Santhruptha\AppData\Local\Android\Sdk\platform-tools\adb.exe -P 5037 -s emulator-5554 shell getprop ro.build.version.sdk'
2022-10-13 03:58:49:120 [ADB] Current device property 'ro.build.version.sdk': 31
2022-10-13 03:58:49:120 [ADB] Getting device platform version
2022-10-13 03:58:49:120 [ADB] Running 'C:\Users\Santhruptha\AppData\Local\Android\Sdk\platform-tools\adb.exe -P 5037 -s emulator-5554 shell getprop ro.build.version.release'
2022-10-13 03:58:49:163 [ADB] Current device property 'ro.build.version.release': 12
2022-10-13 03:58:49:163 [ADB] Device API level: 31
2022-10-13 03:58:49:163 [UiAutomator2] Relaxing hidden api policy
2022-10-13 03:58:49:164 [ADB] Running 'C:\Users\Santhruptha\AppData\Local\Android\Sdk\platform-tools\adb.exe -P 5037 -s emulator-5554 shell 'settings put global hidden_api_policy_pre_p_apps 1;settings put global hidden_api_policy_p_apps 1;settings put global hidden_api_policy 1''
2022-10-13 03:58:49:247 [AndroidDriver] Parsing package and activity from app manifest
2022-10-13 03:58:49:282 [ADB] Package name: 'com.mandir'
2022-10-13 03:58:49:282 [ADB] Main activity name: 'com.mandir.ui.activity.SplashActivity'
2022-10-13 03:58:49:282 [AndroidDriver] Parsed package and activity are: com.mandir/com.mandir.ui.activity.SplashActivity
2022-10-13 03:58:49:283 [ADB] Running 'C:\Users\Santhruptha\AppData\Local\Android\Sdk\platform-tools\adb.exe -P 5037 -s emulator-5554 wait-for-device'
2022-10-13 03:58:49:302 [ADB] Running 'C:\Users\Santhruptha\AppData\Local\Android\Sdk\platform-tools\adb.exe -P 5037 -s emulator-5554 shell echo ping'
2022-10-13 03:58:49:329 [AndroidDriver] Pushing settings apk to device...
2022-10-13 03:58:49:330 [ADB] Getting install status for io.appium.settings
2022-10-13 03:58:49:330 [ADB] Running 'C:\Users\Santhruptha\AppData\Local\Android\Sdk\platform-tools\adb.exe -P 5037 -s emulator-5554 shell dumpsys package io.appium.settings'
2022-10-13 03:58:49:395 [ADB] 'io.appium.settings' is installed
2022-10-13 03:58:49:395 [ADB] Getting package info for 'io.appium.settings'
2022-10-13 03:58:49:395 [ADB] Running 'C:\Users\Santhruptha\AppData\Local\Android\Sdk\platform-tools\adb.exe -P 5037 -s emulator-5554 shell dumpsys package io.appium.settings'
2022-10-13 03:58:49:436 [ADB] The version name of the installed 'io.appium.settings' is greater or equal to the application version name ('3.4.0' >= '3.4.0')
2022-10-13 03:58:49:437 [ADB] There is no need to install/upgrade 'C:\Users\Santhruptha\AppData\Roaming\npm\node_modules\appium\node_modules\io.appium.settings\apks\settings_apk-debug.apk'
2022-10-13 03:58:49:437 [ADB] Getting IDs of all 'io.appium.settings' processes
2022-10-13 03:58:49:437 [ADB] Running 'C:\Users\Santhruptha\AppData\Local\Android\Sdk\platform-tools\adb.exe -P 5037 -s emulator-5554 shell 'pgrep --help; echo $?''
2022-10-13 03:58:49:485 [ADB] Running 'C:\Users\Santhruptha\AppData\Local\Android\Sdk\platform-tools\adb.exe -P 5037 -s emulator-5554 shell pgrep -f \(\[\[:blank:\]\]\|\^\)io\.appium\.settings\(\[\[:blank:\]\]\|\$\)'
2022-10-13 03:58:49:538 [AndroidDriver] io.appium.settings is already running. There is no need to reset its permissions.
2022-10-13 03:58:49:538 [Logcat] Starting logs capture with command: C:\\Users\\Santhruptha\\AppData\\Local\\Android\\Sdk\\platform-tools\\adb.exe -P 5037 -s emulator-5554 logcat -v threadtime
2022-10-13 03:58:49:588 [UiAutomator2] Forwarding UiAutomator2 Server port 6790 to local port 8200
2022-10-13 03:58:49:592 [ADB] Forwarding system: 8200 to device: 6790
2022-10-13 03:58:49:592 [ADB] Running 'C:\Users\Santhruptha\AppData\Local\Android\Sdk\platform-tools\adb.exe -P 5037 -s emulator-5554 forward tcp:8200 tcp:6790'
2022-10-13 03:58:49:633 [ADB] Getting install status for io.appium.uiautomator2.server
2022-10-13 03:58:49:633 [ADB] Running 'C:\Users\Santhruptha\AppData\Local\Android\Sdk\platform-tools\adb.exe -P 5037 -s emulator-5554 shell dumpsys package io.appium.uiautomator2.server'
2022-10-13 03:58:49:797 [ADB] 'io.appium.uiautomator2.server' is installed
2022-10-13 03:58:49:797 [ADB] Getting package info for 'io.appium.uiautomator2.server'
2022-10-13 03:58:49:797 [ADB] Running 'C:\Users\Santhruptha\AppData\Local\Android\Sdk\platform-tools\adb.exe -P 5037 -s emulator-5554 shell dumpsys package io.appium.uiautomator2.server'
2022-10-13 03:58:50:071 [ADB] The version name of the installed 'io.appium.uiautomator2.server' is greater or equal to the application version name ('4.27.0' >= '4.27.0')
2022-10-13 03:58:50:071 [UiAutomator2] io.appium.uiautomator2.server installation state: sameVersionInstalled
2022-10-13 03:58:50:071 [ADB] Checking app cert for C:\Users\Santhruptha\AppData\Roaming\npm\node_modules\appium\node_modules\appium-uiautomator2-server\apks\appium-uiautomator2-server-v4.27.0.apk
2022-10-13 03:58:50:090 [ADB] Using 'apksigner.jar' from 'C:\Users\Santhruptha\AppData\Local\Android\Sdk\build-tools\33.0.0\lib\apksigner.jar'
2022-10-13 03:58:50:091 [ADB] Starting apksigner: 'C:\\Program Files\\Java\\jdk1.8.0_291\\bin\\java.exe' -Xmx1024M -Xss1m -jar C:\\Users\\Santhruptha\\AppData\\Local\\Android\\Sdk\\build-tools\\33.0.0\\lib\\apksigner.jar verify --print-certs C:\\Users\\Santhruptha\\AppData\\Roaming\\npm\\node_modules\\appium\\node_modules\\appium-uiautomator2-server\\apks\\appium-uiautomator2-server-v4.27.0.apk
2022-10-13 03:58:50:865 [ADB] apksigner stdout: Signer #1 certificate DN: EMAILADDRESS=android@android.com, CN=Android, OU=Android, O=Android, L=Mountain View, ST=California, C=US
2022-10-13 03:58:50:865 [ADB] Signer #1 certificate SHA-256 digest: a40da80a59d170caa950cf15c18c454d47a39b26989d8b640ecd745ba71bf5dc
2022-10-13 03:58:50:866 [ADB] Signer #1 certificate SHA-1 digest: 61ed377e85d386a8dfee6b864bd85b0bfaa5af81
2022-10-13 03:58:50:866 [ADB] Signer #1 certificate MD5 digest: e89b158e4bcf988ebd09eb83f5378e87
2022-10-13 03:58:50:866 [ADB] 
2022-10-13 03:58:50:867 [ADB] sha256 hash did match for 'appium-uiautomator2-server-v4.27.0.apk'
2022-10-13 03:58:50:867 [ADB] 'C:\Users\Santhruptha\AppData\Roaming\npm\node_modules\appium\node_modules\appium-uiautomator2-server\apks\appium-uiautomator2-server-v4.27.0.apk' is signed with the default certificate
2022-10-13 03:58:50:867 [ADB] Getting install status for io.appium.uiautomator2.server.test
2022-10-13 03:58:50:867 [ADB] Running 'C:\Users\Santhruptha\AppData\Local\Android\Sdk\platform-tools\adb.exe -P 5037 -s emulator-5554 shell dumpsys package io.appium.uiautomator2.server.test'
2022-10-13 03:58:50:944 [ADB] 'io.appium.uiautomator2.server.test' is installed
2022-10-13 03:58:50:944 [ADB] Checking app cert for C:\Users\Santhruptha\AppData\Roaming\npm\node_modules\appium\node_modules\appium-uiautomator2-server\apks\appium-uiautomator2-server-debug-androidTest.apk
2022-10-13 03:58:50:949 [ADB] Starting apksigner: 'C:\\Program Files\\Java\\jdk1.8.0_291\\bin\\java.exe' -Xmx1024M -Xss1m -jar C:\\Users\\Santhruptha\\AppData\\Local\\Android\\Sdk\\build-tools\\33.0.0\\lib\\apksigner.jar verify --print-certs C:\\Users\\Santhruptha\\AppData\\Roaming\\npm\\node_modules\\appium\\node_modules\\appium-uiautomator2-server\\apks\\appium-uiautomator2-server-debug-androidTest.apk
2022-10-13 03:58:51:251 [ADB] apksigner stdout: Signer #1 certificate DN: EMAILADDRESS=android@android.com, CN=Android, OU=Android, O=Android, L=Mountain View, ST=California, C=US
2022-10-13 03:58:51:251 [ADB] Signer #1 certificate SHA-256 digest: a40da80a59d170caa950cf15c18c454d47a39b26989d8b640ecd745ba71bf5dc
2022-10-13 03:58:51:251 [ADB] Signer #1 certificate SHA-1 digest: 61ed377e85d386a8dfee6b864bd85b0bfaa5af81
2022-10-13 03:58:51:251 [ADB] Signer #1 certificate MD5 digest: e89b158e4bcf988ebd09eb83f5378e87
2022-10-13 03:58:51:251 [ADB] 
2022-10-13 03:58:51:251 [ADB] sha256 hash did match for 'appium-uiautomator2-server-debug-androidTest.apk'
2022-10-13 03:58:51:251 [ADB] 'C:\Users\Santhruptha\AppData\Roaming\npm\node_modules\appium\node_modules\appium-uiautomator2-server\apks\appium-uiautomator2-server-debug-androidTest.apk' is signed with the default certificate
2022-10-13 03:58:51:251 [UiAutomator2] Server packages are not going to be (re)installed
2022-10-13 03:58:51:253 [UiAutomator2] Waiting up to 30000ms for services to be available
2022-10-13 03:58:51:253 [ADB] Running 'C:\Users\Santhruptha\AppData\Local\Android\Sdk\platform-tools\adb.exe -P 5037 -s emulator-5554 shell pm list instrumentation'
2022-10-13 03:58:51:295 [UiAutomator2] Instrumentation target 'io.appium.uiautomator2.server.test/androidx.test.runner.AndroidJUnitRunner' is available
2022-10-13 03:58:51:296 [ADB] Adding packages ["io.appium.settings","io.appium.uiautomator2.server","io.appium.uiautomator2.server.test"] to Doze whitelist
2022-10-13 03:58:51:297 [ADB] Got the following command chunks to execute: [["dumpsys","deviceidle","whitelist","+io.appium.settings",";","dumpsys","deviceidle","whitelist","+io.appium.uiautomator2.server",";","dumpsys","deviceidle","whitelist","+io.appium.uiautomator2.server.test",";"]]
2022-10-13 03:58:51:297 [ADB] Running 'C:\Users\Santhruptha\AppData\Local\Android\Sdk\platform-tools\adb.exe -P 5037 -s emulator-5554 shell dumpsys deviceidle whitelist +io.appium.settings ; dumpsys deviceidle whitelist +io.appium.uiautomator2.server ; dumpsys deviceidle whitelist +io.appium.uiautomator2.server.test ;'
2022-10-13 03:58:51:345 [ADB] Checking app cert for C:\Sri Mandir repo\SRI_MANDIR(Different languages)\src\main\java\resources\app-debug-3.7.5.apk
2022-10-13 03:58:51:561 [ADB] Starting apksigner: 'C:\\Program Files\\Java\\jdk1.8.0_291\\bin\\java.exe' -Xmx1024M -Xss1m -jar C:\\Users\\Santhruptha\\AppData\\Local\\Android\\Sdk\\build-tools\\33.0.0\\lib\\apksigner.jar verify --print-certs 'C:\\Sri Mandir repo\\SRI_MANDIR(Different languages)\\src\\main\\java\\resources\\app-debug-3.7.5.apk'
2022-10-13 03:58:54:618 [ADB] apksigner stdout: Signer #1 certificate DN: C=US, O=Android, CN=Android Debug
2022-10-13 03:58:54:618 [ADB] Signer #1 certificate SHA-256 digest: 468f8d0eca3bb01d2f428ec8b54a99b3813d746f45499a1b98320fb67de13b88
2022-10-13 03:58:54:618 [ADB] Signer #1 certificate SHA-1 digest: 6af3fb8b6c2faff18497cde281bcb0971856f899
2022-10-13 03:58:54:618 [ADB] Signer #1 certificate MD5 digest: 80c2152efe8fbaf12745baabbb4c6045
2022-10-13 03:58:54:618 [ADB] 
2022-10-13 03:58:54:619 [ADB] 'C:\Sri Mandir repo\SRI_MANDIR(Different languages)\src\main\java\resources\app-debug-3.7.5.apk' is signed with a non-default certificate
2022-10-13 03:58:54:619 [ADB] Getting install status for com.mandir
2022-10-13 03:58:54:619 [ADB] Running 'C:\Users\Santhruptha\AppData\Local\Android\Sdk\platform-tools\adb.exe -P 5037 -s emulator-5554 shell dumpsys package com.mandir'
2022-10-13 03:58:55:057 [ADB] 'com.mandir' is installed
2022-10-13 03:58:55:057 [ADB] Getting package info for 'com.mandir'
2022-10-13 03:58:55:057 [ADB] Running 'C:\Users\Santhruptha\AppData\Local\Android\Sdk\platform-tools\adb.exe -P 5037 -s emulator-5554 shell dumpsys package com.mandir'
2022-10-13 03:58:55:117 [ADB] The version name of the installed 'com.mandir' is greater or equal to the application version name ('3.7.5' >= '3.7.5')
2022-10-13 03:58:55:117 [ADB] There is no need to install/upgrade 'C:\Sri Mandir repo\SRI_MANDIR(Different languages)\src\main\java\resources\app-debug-3.7.5.apk'
2022-10-13 03:58:55:118 [UiAutomator2] Performing shallow cleanup of automation leftovers
2022-10-13 03:58:55:165 [UiAutomator2] The following obsolete sessions are still running: ["c7b1d395-a3d4-4adc-b968-301b4c2b615b"]
2022-10-13 03:58:55:166 [UiAutomator2] Cleaning up 1 obsolete session
2022-10-13 03:58:56:197 [ADB] Running 'C:\Users\Santhruptha\AppData\Local\Android\Sdk\platform-tools\adb.exe -P 5037 -s emulator-5554 shell am force-stop io.appium.uiautomator2.server.test'
2022-10-13 03:58:56:243 [UiAutomator2] Starting UIAutomator2 server 4.27.0
2022-10-13 03:58:56:243 [UiAutomator2] Using UIAutomator2 server from 'C:\Users\Santhruptha\AppData\Roaming\npm\node_modules\appium\node_modules\appium-uiautomator2-server\apks\appium-uiautomator2-server-v4.27.0.apk' and test from 'C:\Users\Santhruptha\AppData\Roaming\npm\node_modules\appium\node_modules\appium-uiautomator2-server\apks\appium-uiautomator2-server-debug-androidTest.apk'
2022-10-13 03:58:56:243 [UiAutomator2] Waiting up to 30000ms for UiAutomator2 to be online...
2022-10-13 03:58:56:244 [ADB] Creating ADB subprocess with args: ["-P",5037,"-s","emulator-5554","shell","am","instrument","-w","-e","disableAnalytics",true,"io.appium.uiautomator2.server.test/androidx.test.runner.AndroidJUnitRunner"]
2022-10-13 03:58:56:250 [WD Proxy] Matched '/status' to command name 'getStatus'
2022-10-13 03:58:56:252 [WD Proxy] Proxying [GET /status] to [GET http://127.0.0.1:8200/wd/hub/status] with no body
2022-10-13 03:58:56:260 [WD Proxy] socket hang up
2022-10-13 03:58:57:266 [WD Proxy] Matched '/status' to command name 'getStatus'
2022-10-13 03:58:57:267 [WD Proxy] Proxying [GET /status] to [GET http://127.0.0.1:8200/wd/hub/status] with no body
2022-10-13 03:58:57:272 [WD Proxy] socket hang up
2022-10-13 03:58:57:558 [Instrumentation] io.appium.uiautomator2.server.test.AppiumUiAutomator2Server:
2022-10-13 03:58:58:284 [WD Proxy] Matched '/status' to command name 'getStatus'
2022-10-13 03:58:58:284 [WD Proxy] Proxying [GET /status] to [GET http://127.0.0.1:8200/wd/hub/status] with no body
2022-10-13 03:58:58:290 [WD Proxy] socket hang up
2022-10-13 03:58:59:303 [WD Proxy] Matched '/status' to command name 'getStatus'
2022-10-13 03:58:59:304 [WD Proxy] Proxying [GET /status] to [GET http://127.0.0.1:8200/wd/hub/status] with no body
2022-10-13 03:58:59:407 [WD Proxy] Got response with status 200: {"sessionId":"None","value":{"message":"UiAutomator2 Server is ready to accept commands","ready":true}}
2022-10-13 03:58:59:408 [UiAutomator2] The initialization of the instrumentation process took 3164ms
2022-10-13 03:58:59:408 [WD Proxy] Matched '/session' to command name 'createSession'
2022-10-13 03:58:59:408 [WD Proxy] Proxying [POST /session] to [POST http://127.0.0.1:8200/wd/hub/session] with body: {"capabilities":{"firstMatch":[{"platform":"ANDROID","webStorageEnabled":false,"takesScreenshot":true,"javascriptEnabled":true,"databaseEnabled":false,"networkConnectionEnabled":true,"locationContextEnabled":false,"warnings":{},"desired":{"platformName":"android","platform":"ANDROID","app":"./src/main/java/resources/app-debug-3.7.5.apk","autoGrantPermissions":true,"automationName":"UiAutomator2","noReset":true,"udid":"emulator-5554"},"platformName":"android","app":"./src/main/java/resources/app-debug-3.7.5.apk","autoGrantPermissions":true,"automationName":"UiAutomator2","noReset":true,"udid":"emulator-5554","deviceName":"emulator-5554","deviceUDID":"emulator-5554","appPackage":"com.mandir"}],"alwaysMatch":{}}}
2022-10-13 03:58:59:438 [WD Proxy] Got response with status 200: {"sessionId":"e0e9daaf-c8fa-4e97-915d-0dee2e538bea","value":{"capabilities":{"firstMatch":[{"platform":"ANDROID","webStorageEnabled":false,"takesScreenshot":true,"javascriptEnabled":true,"databaseEnabled":false,"networkConnectionEnabled":true,"locationContextEnabled":false,"warnings":{},"desired":{"platformName":"android","platform":"ANDROID","app":"./src/main/java/resources/app-debug-3.7.5.apk","autoGrantPermissions":true,"automationName":"UiAutomator2","noReset":true,"udid":"emulator-5554"},"platformName":"android","app":"./src/main/java/resources/app-debug-3.7.5.apk","autoGrantPermissions":true,"automationName":"UiAutomator2","noReset":true,"udid":"emulator-5554","deviceName":"emulator-5554","deviceUDID":"emulator-5554","appPackage":"com.mandir"}],"alwaysMatch":{}},"sessionId":"e0e9daaf-c8fa-4e97-915d-0dee2e538bea"}}
2022-10-13 03:58:59:438 [WD Proxy] Determined the downstream protocol as 'W3C'
2022-10-13 03:58:59:449 [WD Proxy] Proxying [GET /appium/device/info] to [GET http://127.0.0.1:8200/wd/hub/session/e0e9daaf-c8fa-4e97-915d-0dee2e538bea/appium/device/info] with no body
2022-10-13 03:58:59:493 [WD Proxy] Got response with status 200: {"sessionId":"e0e9daaf-c8fa-4e97-915d-0dee2e538bea","value":{"androidId":"552f43563f2b4976","apiVersion":"31","bluetooth":{"state":"ON"},"brand":"google","carrierName":"T-Mobile","displayDensity":420,"locale":"en_US","manufacturer":"Google","model":"sdk_gphone64_x86_64","networks":[{"capabilities":{"SSID":null,"linkDownBandwidthKbps":30000,"linkUpstreamBandwidthKbps":12000,"networkCapabilities":"NET_CAPABILITY_NOT_METERED,NET_CAPABILITY_INTERNET,NET_CAPABILITY_NOT_RESTRICTED,NET_CAPABILITY_TRUSTED,NET_CAPABILITY_NOT_VPN,NET_CAPABILITY_VALIDATED,NET_CAPABILITY_NOT_ROAMING,NET_CAPABILITY_FOREGROUND,NET_CAPABILITY_NOT_CONGESTED,NET_CAPABILITY_NOT_SUSPENDED","signalStrength":-50,"transportTypes":"TRANSPORT_WIFI"},"detailedState":"CONNECTED","extraInfo":"","isAvailable":true,"isConnected":true,"isFailover":false,"isRoaming":false,"state":"CONNECTED","subtype":-1,"subtypeName":"","type":1,"typeName":"WIFI"},{"capabilities":{"SSID":null,"linkDownBandwidthKbps":30000,"linkUpstreamBandwidthKbps":15000,"networkCapab...
2022-10-13 03:58:59:494 [ADB] Running 'C:\Users\Santhruptha\AppData\Local\Android\Sdk\platform-tools\adb.exe -P 5037 -s emulator-5554 shell dumpsys window'
2022-10-13 03:58:59:544 [AndroidDriver] Screen already unlocked, doing nothing
2022-10-13 03:58:59:544 [UiAutomator2] Starting 'com.mandir/com.mandir.ui.activity.SplashActivity and waiting for 'com.mandir/com.mandir.ui.activity.SplashActivity'
2022-10-13 03:58:59:545 [ADB] Running 'C:\Users\Santhruptha\AppData\Local\Android\Sdk\platform-tools\adb.exe -P 5037 -s emulator-5554 shell am start -W -n com.mandir/com.mandir.ui.activity.SplashActivity -S -a android.intent.action.MAIN -c android.intent.category.LAUNCHER -f 0x10200000'
2022-10-13 03:59:05:414 [ADB] Waiting up to 20000ms for activity matching pkg: 'com.mandir' and activity: 'com.mandir.ui.activity.SplashActivity' to be focused
2022-10-13 03:59:05:415 [ADB] Possible activities, to be checked: 'com.mandir.ui.activity.SplashActivity', 'com.mandir.com.mandir.ui.activity.SplashActivity'
2022-10-13 03:59:05:416 [ADB] Getting focused package and activity
2022-10-13 03:59:05:416 [ADB] Running 'C:\Users\Santhruptha\AppData\Local\Android\Sdk\platform-tools\adb.exe -P 5037 -s emulator-5554 shell dumpsys window displays'
2022-10-13 03:59:05:516 [ADB] Found package: 'com.mandir' and fully qualified activity name : 'com.mandir.ui.activity.SplashActivity'
2022-10-13 03:59:05:536 [WD Proxy] Proxying [GET /appium/device/pixel_ratio] to [GET http://127.0.0.1:8200/wd/hub/session/e0e9daaf-c8fa-4e97-915d-0dee2e538bea/appium/device/pixel_ratio] with no body
2022-10-13 03:59:05:555 [WD Proxy] Got response with status 200: {"sessionId":"e0e9daaf-c8fa-4e97-915d-0dee2e538bea","value":2.625}
2022-10-13 03:59:05:557 [WD Proxy] Matched '/appium/device/system_bars' to command name 'getSystemBars'
2022-10-13 03:59:05:557 [WD Proxy] Proxying [GET /appium/device/system_bars] to [GET http://127.0.0.1:8200/wd/hub/session/e0e9daaf-c8fa-4e97-915d-0dee2e538bea/appium/device/system_bars] with no body
2022-10-13 03:59:05:591 [WD Proxy] Got response with status 200: {"sessionId":"e0e9daaf-c8fa-4e97-915d-0dee2e538bea","value":{"statusBar":63}}
2022-10-13 03:59:05:592 [WD Proxy] Matched '/window/current/size' to command name 'getWindowSize'
2022-10-13 03:59:05:592 [WD Proxy] Proxying [GET /window/current/size] to [GET http://127.0.0.1:8200/wd/hub/session/e0e9daaf-c8fa-4e97-915d-0dee2e538bea/window/current/size] with no body
2022-10-13 03:59:05:608 [WD Proxy] Got response with status 200: {"sessionId":"e0e9daaf-c8fa-4e97-915d-0dee2e538bea","value":{"height":1794,"width":1080}}
2022-10-13 03:59:05:609 [Appium] New AndroidUiautomator2Driver session created successfully, session 6c9a288f-939b-4a0e-ac6d-bb516e8ef1a4 added to master session list
2022-10-13 03:59:05:611 [BaseDriver] Event 'newSessionStarted' logged at 1665633545611 (09:29:05 GMT+0530 (India Standard Time))
2022-10-13 03:59:05:611 [W3C (6c9a288f)] Cached the protocol value 'W3C' for the new session 6c9a288f-939b-4a0e-ac6d-bb516e8ef1a4
2022-10-13 03:59:05:612 [W3C (6c9a288f)] Responding to client with driver.createSession() result: {"capabilities":{"platform":"ANDROID","webStorageEnabled":false,"takesScreenshot":true,"javascriptEnabled":true,"databaseEnabled":false,"networkConnectionEnabled":true,"locationContextEnabled":false,"warnings":{},"desired":{"platformName":"android","platform":"ANDROID","app":"./src/main/java/resources/app-debug-3.7.5.apk","autoGrantPermissions":true,"automationName":"UiAutomator2","noReset":true,"udid":"emulator-5554"},"platformName":"android","app":"./src/main/java/resources/app-debug-3.7.5.apk","autoGrantPermissions":true,"automationName":"UiAutomator2","noReset":true,"udid":"emulator-5554","deviceName":"emulator-5554","deviceUDID":"emulator-5554","appPackage":"com.mandir","deviceApiLevel":31,"platformVersion":"12","deviceScreenSize":"1080x1920","deviceScreenDensity":420,"deviceModel":"sdk_gphone64_x86_64","deviceManufacturer":"Google","pixelRatio":2.625,"statBarHeight":63,"viewportRect":{"left":0,"top":63,"width":1080,"height":1731}}}
2022-10-13 03:59:05:614 [HTTP] <-- POST /wd/hub/session 200 19253 ms - 1012
2022-10-13 03:59:05:615 [HTTP] 
2022-10-13 03:59:05:683 [HTTP] --> GET /wd/hub/session/6c9a288f-939b-4a0e-ac6d-bb516e8ef1a4
2022-10-13 03:59:05:683 [HTTP] {}
2022-10-13 03:59:05:685 [W3C (6c9a288f)] Calling AppiumDriver.getSession() with args: ["6c9a288f-939b-4a0e-ac6d-bb516e8ef1a4"]
2022-10-13 03:59:05:685 [UiAutomator2] Getting session details from server to mix in
2022-10-13 03:59:05:686 [WD Proxy] Matched '/' to command name 'getSession'
2022-10-13 03:59:05:686 [WD Proxy] Proxying [GET /] to [GET http://127.0.0.1:8200/wd/hub/session/e0e9daaf-c8fa-4e97-915d-0dee2e538bea] with no body
2022-10-13 03:59:05:714 [WD Proxy] Got response with status 200: {"sessionId":"e0e9daaf-c8fa-4e97-915d-0dee2e538bea","value":{"lastScrollData":null}}
2022-10-13 03:59:05:714 [W3C (6c9a288f)] Responding to client with driver.getSession() result: {"platform":"ANDROID","webStorageEnabled":false,"takesScreenshot":true,"javascriptEnabled":true,"databaseEnabled":false,"networkConnectionEnabled":true,"locationContextEnabled":false,"warnings":{},"desired":{"platformName":"android","platform":"ANDROID","app":"./src/main/java/resources/app-debug-3.7.5.apk","autoGrantPermissions":true,"automationName":"UiAutomator2","noReset":true,"udid":"emulator-5554"},"platformName":"android","app":"./src/main/java/resources/app-debug-3.7.5.apk","autoGrantPermissions":true,"automationName":"UiAutomator2","noReset":true,"udid":"emulator-5554","deviceName":"emulator-5554","deviceUDID":"emulator-5554","appPackage":"com.mandir","deviceApiLevel":31,"platformVersion":"12","deviceScreenSize":"1080x1920","deviceScreenDensity":420,"deviceModel":"sdk_gphone64_x86_64","deviceManufacturer":"Google","pixelRatio":2.625,"statBarHeight":63,"viewportRect":{"left":0,"top":63,"width":1080,"height":1731},"lastScrollData":null}
2022-10-13 03:59:05:716 [HTTP] <-- GET /wd/hub/session/6c9a288f-939b-4a0e-ac6d-bb516e8ef1a4 200 32 ms - 966
2022-10-13 03:59:05:716 [HTTP] 
2022-10-13 03:59:05:725 [HTTP] --> GET /wd/hub/session/6c9a288f-939b-4a0e-ac6d-bb516e8ef1a4
2022-10-13 03:59:05:725 [HTTP] {}
2022-10-13 03:59:05:726 [W3C (6c9a288f)] Calling AppiumDriver.getSession() with args: ["6c9a288f-939b-4a0e-ac6d-bb516e8ef1a4"]
2022-10-13 03:59:05:726 [UiAutomator2] Getting session details from server to mix in
2022-10-13 03:59:05:727 [WD Proxy] Matched '/' to command name 'getSession'
2022-10-13 03:59:05:727 [WD Proxy] Proxying [GET /] to [GET http://127.0.0.1:8200/wd/hub/session/e0e9daaf-c8fa-4e97-915d-0dee2e538bea] with no body
2022-10-13 03:59:05:748 [WD Proxy] Got response with status 200: {"sessionId":"e0e9daaf-c8fa-4e97-915d-0dee2e538bea","value":{"lastScrollData":null}}
2022-10-13 03:59:05:749 [W3C (6c9a288f)] Responding to client with driver.getSession() result: {"platform":"ANDROID","webStorageEnabled":false,"takesScreenshot":true,"javascriptEnabled":true,"databaseEnabled":false,"networkConnectionEnabled":true,"locationContextEnabled":false,"warnings":{},"desired":{"platformName":"android","platform":"ANDROID","app":"./src/main/java/resources/app-debug-3.7.5.apk","autoGrantPermissions":true,"automationName":"UiAutomator2","noReset":true,"udid":"emulator-5554"},"platformName":"android","app":"./src/main/java/resources/app-debug-3.7.5.apk","autoGrantPermissions":true,"automationName":"UiAutomator2","noReset":true,"udid":"emulator-5554","deviceName":"emulator-5554","deviceUDID":"emulator-5554","appPackage":"com.mandir","deviceApiLevel":31,"platformVersion":"12","deviceScreenSize":"1080x1920","deviceScreenDensity":420,"deviceModel":"sdk_gphone64_x86_64","deviceManufacturer":"Google","pixelRatio":2.625,"statBarHeight":63,"viewportRect":{"left":0,"top":63,"width":1080,"height":1731},"lastScrollData":null}
2022-10-13 03:59:05:751 [HTTP] <-- GET /wd/hub/session/6c9a288f-939b-4a0e-ac6d-bb516e8ef1a4 200 25 ms - 966
2022-10-13 03:59:05:751 [HTTP] 
2022-10-13 03:59:05:763 [HTTP] --> POST /wd/hub/session/6c9a288f-939b-4a0e-ac6d-bb516e8ef1a4/timeouts
2022-10-13 03:59:05:763 [HTTP] {"implicit":50000}
2022-10-13 03:59:05:765 [W3C (6c9a288f)] Calling AppiumDriver.timeouts() with args: [null,null,null,null,50000,"6c9a288f-939b-4a0e-ac6d-bb516e8ef1a4"]
2022-10-13 03:59:05:766 [BaseDriver] W3C timeout argument: {"implicit":50000}}
2022-10-13 03:59:05:767 [BaseDriver] Set implicit wait to 50000ms
2022-10-13 03:59:05:768 [W3C (6c9a288f)] Responding to client with driver.timeouts() result: null
2022-10-13 03:59:05:769 [HTTP] <-- POST /wd/hub/session/6c9a288f-939b-4a0e-ac6d-bb516e8ef1a4/timeouts 200 5 ms - 14
2022-10-13 03:59:05:769 [HTTP] 
2022-10-13 03:59:05:827 [HTTP] --> POST /wd/hub/session/6c9a288f-939b-4a0e-ac6d-bb516e8ef1a4/element
2022-10-13 03:59:05:828 [HTTP] {"using":"id","value":"com.mandir:id/iv_aartiMode"}
2022-10-13 03:59:05:831 [W3C (6c9a288f)] Calling AppiumDriver.findElement() with args: ["id","com.mandir:id/iv_aartiMode","6c9a288f-939b-4a0e-ac6d-bb516e8ef1a4"]
2022-10-13 03:59:05:832 [BaseDriver] Valid locator strategies for this request: xpath, id, class name, accessibility id, css selector, -android uiautomator
2022-10-13 03:59:05:833 [BaseDriver] Waiting up to 50000 ms for condition
2022-10-13 03:59:05:834 [WD Proxy] Matched '/element' to command name 'findElement'
2022-10-13 03:59:05:834 [WD Proxy] Proxying [POST /element] to [POST http://127.0.0.1:8200/wd/hub/session/e0e9daaf-c8fa-4e97-915d-0dee2e538bea/element] with body: {"strategy":"id","selector":"com.mandir:id/iv_aartiMode","context":"","multiple":false}
2022-10-13 03:59:06:972 [WD Proxy] Got response with status 404: {"sessionId":"e0e9daaf-c8fa-4e97-915d-0dee2e538bea","value":{"error":"no such element","message":"An element could not be located on the page using the given search parameters","stacktrace":"io.appium.uiautomator2.common.exceptions.ElementNotFoundException: An element could not be located on the page using the given search parameters\n\tat io.appium.uiautomator2.handler.FindElement.safeHandle(FindElement.java:70)\n\tat io.appium.uiautomator2.handler.request.SafeRequestHandler.handle(SafeRequestHandler.java:59)\n\tat io.appium.uiautomator2.server.AppiumServlet.handleRequest(AppiumServlet.java:266)\n\tat io.appium.uiautomator2.server.AppiumServlet.handleHttpRequest(AppiumServlet.java:260)\n\tat io.appium.uiautomator2.http.ServerHandler.channelRead(ServerHandler.java:68)\n\tat io.netty.channel.AbstractChannelHandlerContext.invokeChannelRead(AbstractChannelHandlerContext.java:366)\n\tat io.netty.channel.AbstractChannelHandlerContext.invokeChannelRead(AbstractChannelHandlerContext.java:352)\n\tat io.netty.chann...
2022-10-13 03:59:06:973 [W3C] Matched W3C error code 'no such element' to NoSuchElementError
2022-10-13 03:59:06:973 [BaseDriver] Waited for 1140 ms so far
2022-10-13 03:59:07:488 [WD Proxy] Matched '/element' to command name 'findElement'
2022-10-13 03:59:07:488 [WD Proxy] Proxying [POST /element] to [POST http://127.0.0.1:8200/wd/hub/session/e0e9daaf-c8fa-4e97-915d-0dee2e538bea/element] with body: {"strategy":"id","selector":"com.mandir:id/iv_aartiMode","context":"","multiple":false}
2022-10-13 03:59:09:551 [WD Proxy] Got response with status 404: {"sessionId":"e0e9daaf-c8fa-4e97-915d-0dee2e538bea","value":{"error":"no such element","message":"An element could not be located on the page using the given search parameters","stacktrace":"io.appium.uiautomator2.common.exceptions.ElementNotFoundException: An element could not be located on the page using the given search parameters\n\tat io.appium.uiautomator2.handler.FindElement.safeHandle(FindElement.java:70)\n\tat io.appium.uiautomator2.handler.request.SafeRequestHandler.handle(SafeRequestHandler.java:59)\n\tat io.appium.uiautomator2.server.AppiumServlet.handleRequest(AppiumServlet.java:266)\n\tat io.appium.uiautomator2.server.AppiumServlet.handleHttpRequest(AppiumServlet.java:260)\n\tat io.appium.uiautomator2.http.ServerHandler.channelRead(ServerHandler.java:68)\n\tat io.netty.channel.AbstractChannelHandlerContext.invokeChannelRead(AbstractChannelHandlerContext.java:366)\n\tat io.netty.channel.AbstractChannelHandlerContext.invokeChannelRead(AbstractChannelHandlerContext.java:352)\n\tat io.netty.chann...
2022-10-13 03:59:09:551 [W3C] Matched W3C error code 'no such element' to NoSuchElementError
2022-10-13 03:59:09:552 [BaseDriver] Waited for 3718 ms so far
2022-10-13 03:59:10:052 [WD Proxy] Matched '/element' to command name 'findElement'
2022-10-13 03:59:10:052 [WD Proxy] Proxying [POST /element] to [POST http://127.0.0.1:8200/wd/hub/session/e0e9daaf-c8fa-4e97-915d-0dee2e538bea/element] with body: {"strategy":"id","selector":"com.mandir:id/iv_aartiMode","context":"","multiple":false}
2022-10-13 03:59:12:074 [WD Proxy] Got response with status 200: {"sessionId":"e0e9daaf-c8fa-4e97-915d-0dee2e538bea","value":{"ELEMENT":"00000000-0000-0059-ffff-ffff0000004b","element-6066-11e4-a52e-4f735466cecf":"00000000-0000-0059-ffff-ffff0000004b"}}
2022-10-13 03:59:12:075 [W3C (6c9a288f)] Responding to client with driver.findElement() result: {"element-6066-11e4-a52e-4f735466cecf":"00000000-0000-0059-ffff-ffff0000004b","ELEMENT":"00000000-0000-0059-ffff-ffff0000004b"}
2022-10-13 03:59:12:076 [HTTP] <-- POST /wd/hub/session/6c9a288f-939b-4a0e-ac6d-bb516e8ef1a4/element 200 6248 ms - 137
2022-10-13 03:59:12:076 [HTTP] 
2022-10-13 03:59:12:090 [HTTP] --> POST /wd/hub/session/6c9a288f-939b-4a0e-ac6d-bb516e8ef1a4/element
2022-10-13 03:59:12:091 [HTTP] {"using":"id","value":"com.mandir:id/iv_aartiMode"}
2022-10-13 03:59:12:092 [W3C (6c9a288f)] Calling AppiumDriver.findElement() with args: ["id","com.mandir:id/iv_aartiMode","6c9a288f-939b-4a0e-ac6d-bb516e8ef1a4"]
2022-10-13 03:59:12:093 [BaseDriver] Valid locator strategies for this request: xpath, id, class name, accessibility id, css selector, -android uiautomator
2022-10-13 03:59:12:093 [BaseDriver] Waiting up to 50000 ms for condition
2022-10-13 03:59:12:094 [WD Proxy] Matched '/element' to command name 'findElement'
2022-10-13 03:59:12:094 [WD Proxy] Proxying [POST /element] to [POST http://127.0.0.1:8200/wd/hub/session/e0e9daaf-c8fa-4e97-915d-0dee2e538bea/element] with body: {"strategy":"id","selector":"com.mandir:id/iv_aartiMode","context":"","multiple":false}
2022-10-13 03:59:13:927 [WD Proxy] Got response with status 200: {"sessionId":"e0e9daaf-c8fa-4e97-915d-0dee2e538bea","value":{"ELEMENT":"00000000-0000-0059-ffff-ffff0000004b","element-6066-11e4-a52e-4f735466cecf":"00000000-0000-0059-ffff-ffff0000004b"}}
2022-10-13 03:59:13:927 [W3C (6c9a288f)] Responding to client with driver.findElement() result: {"element-6066-11e4-a52e-4f735466cecf":"00000000-0000-0059-ffff-ffff0000004b","ELEMENT":"00000000-0000-0059-ffff-ffff0000004b"}
2022-10-13 03:59:13:928 [HTTP] <-- POST /wd/hub/session/6c9a288f-939b-4a0e-ac6d-bb516e8ef1a4/element 200 1838 ms - 137
2022-10-13 03:59:13:928 [HTTP] 
2022-10-13 03:59:13:933 [HTTP] --> GET /wd/hub/session/6c9a288f-939b-4a0e-ac6d-bb516e8ef1a4/element/00000000-0000-0059-ffff-ffff0000004b/displayed
2022-10-13 03:59:13:933 [HTTP] {}
2022-10-13 03:59:13:934 [W3C (6c9a288f)] Calling AppiumDriver.elementDisplayed() with args: ["00000000-0000-0059-ffff-ffff0000004b","6c9a288f-939b-4a0e-ac6d-bb516e8ef1a4"]
2022-10-13 03:59:13:935 [WD Proxy] Matched '/element/00000000-0000-0059-ffff-ffff0000004b/attribute/displayed' to command name 'getAttribute'
2022-10-13 03:59:13:935 [WD Proxy] Proxying [GET /element/00000000-0000-0059-ffff-ffff0000004b/attribute/displayed] to [GET http://127.0.0.1:8200/wd/hub/session/e0e9daaf-c8fa-4e97-915d-0dee2e538bea/element/00000000-0000-0059-ffff-ffff0000004b/attribute/displayed] with no body
2022-10-13 03:59:13:956 [WD Proxy] Got response with status 200: {"sessionId":"e0e9daaf-c8fa-4e97-915d-0dee2e538bea","value":"true"}
2022-10-13 03:59:13:957 [W3C (6c9a288f)] Responding to client with driver.elementDisplayed() result: true
2022-10-13 03:59:13:957 [HTTP] <-- GET /wd/hub/session/6c9a288f-939b-4a0e-ac6d-bb516e8ef1a4/element/00000000-0000-0059-ffff-ffff0000004b/displayed 200 25 ms - 14
2022-10-13 03:59:13:957 [HTTP] 
2022-10-13 03:59:13:962 [HTTP] --> POST /wd/hub/session/6c9a288f-939b-4a0e-ac6d-bb516e8ef1a4/element
2022-10-13 03:59:13:962 [HTTP] {"using":"id","value":"com.mandir:id/iv_aartiMode"}
2022-10-13 03:59:13:962 [W3C (6c9a288f)] Calling AppiumDriver.findElement() with args: ["id","com.mandir:id/iv_aartiMode","6c9a288f-939b-4a0e-ac6d-bb516e8ef1a4"]
2022-10-13 03:59:13:963 [BaseDriver] Valid locator strategies for this request: xpath, id, class name, accessibility id, css selector, -android uiautomator
2022-10-13 03:59:13:963 [BaseDriver] Waiting up to 50000 ms for condition
2022-10-13 03:59:13:963 [WD Proxy] Matched '/element' to command name 'findElement'
2022-10-13 03:59:13:963 [WD Proxy] Proxying [POST /element] to [POST http://127.0.0.1:8200/wd/hub/session/e0e9daaf-c8fa-4e97-915d-0dee2e538bea/element] with body: {"strategy":"id","selector":"com.mandir:id/iv_aartiMode","context":"","multiple":false}
2022-10-13 03:59:14:950 [WD Proxy] Got response with status 200: {"sessionId":"e0e9daaf-c8fa-4e97-915d-0dee2e538bea","value":{"ELEMENT":"00000000-0000-0059-ffff-ffff0000004b","element-6066-11e4-a52e-4f735466cecf":"00000000-0000-0059-ffff-ffff0000004b"}}
2022-10-13 03:59:14:951 [W3C (6c9a288f)] Responding to client with driver.findElement() result: {"element-6066-11e4-a52e-4f735466cecf":"00000000-0000-0059-ffff-ffff0000004b","ELEMENT":"00000000-0000-0059-ffff-ffff0000004b"}
2022-10-13 03:59:14:953 [HTTP] <-- POST /wd/hub/session/6c9a288f-939b-4a0e-ac6d-bb516e8ef1a4/element 200 990 ms - 137
2022-10-13 03:59:14:953 [HTTP] 
2022-10-13 03:59:14:958 [HTTP] --> POST /wd/hub/session/6c9a288f-939b-4a0e-ac6d-bb516e8ef1a4/element
2022-10-13 03:59:14:958 [HTTP] {"using":"id","value":"com.mandir:id/iv_aartiMode"}
2022-10-13 03:59:14:959 [W3C (6c9a288f)] Calling AppiumDriver.findElement() with args: ["id","com.mandir:id/iv_aartiMode","6c9a288f-939b-4a0e-ac6d-bb516e8ef1a4"]
2022-10-13 03:59:14:959 [BaseDriver] Valid locator strategies for this request: xpath, id, class name, accessibility id, css selector, -android uiautomator
2022-10-13 03:59:14:960 [BaseDriver] Waiting up to 50000 ms for condition
2022-10-13 03:59:14:960 [WD Proxy] Matched '/element' to command name 'findElement'
2022-10-13 03:59:14:961 [WD Proxy] Proxying [POST /element] to [POST http://127.0.0.1:8200/wd/hub/session/e0e9daaf-c8fa-4e97-915d-0dee2e538bea/element] with body: {"strategy":"id","selector":"com.mandir:id/iv_aartiMode","context":"","multiple":false}
2022-10-13 03:59:15:847 [WD Proxy] Got response with status 200: {"sessionId":"e0e9daaf-c8fa-4e97-915d-0dee2e538bea","value":{"ELEMENT":"00000000-0000-0059-ffff-ffff0000004b","element-6066-11e4-a52e-4f735466cecf":"00000000-0000-0059-ffff-ffff0000004b"}}
2022-10-13 03:59:15:847 [W3C (6c9a288f)] Responding to client with driver.findElement() result: {"element-6066-11e4-a52e-4f735466cecf":"00000000-0000-0059-ffff-ffff0000004b","ELEMENT":"00000000-0000-0059-ffff-ffff0000004b"}
2022-10-13 03:59:15:849 [HTTP] <-- POST /wd/hub/session/6c9a288f-939b-4a0e-ac6d-bb516e8ef1a4/element 200 891 ms - 137
2022-10-13 03:59:15:849 [HTTP] 
2022-10-13 03:59:15:854 [HTTP] --> POST /wd/hub/session/6c9a288f-939b-4a0e-ac6d-bb516e8ef1a4/element/00000000-0000-0059-ffff-ffff0000004b/click
2022-10-13 03:59:15:854 [HTTP] {"id":"00000000-0000-0059-ffff-ffff0000004b"}
2022-10-13 03:59:15:855 [W3C (6c9a288f)] Calling AppiumDriver.click() with args: ["00000000-0000-0059-ffff-ffff0000004b","6c9a288f-939b-4a0e-ac6d-bb516e8ef1a4"]
2022-10-13 03:59:15:856 [WD Proxy] Matched '/element/00000000-0000-0059-ffff-ffff0000004b/click' to command name 'click'
2022-10-13 03:59:15:856 [WD Proxy] Proxying [POST /element/00000000-0000-0059-ffff-ffff0000004b/click] to [POST http://127.0.0.1:8200/wd/hub/session/e0e9daaf-c8fa-4e97-915d-0dee2e538bea/element/00000000-0000-0059-ffff-ffff0000004b/click] with body: {"element":"00000000-0000-0059-ffff-ffff0000004b"}
2022-10-13 03:59:15:989 [WD Proxy] Got response with status 200: {"sessionId":"e0e9daaf-c8fa-4e97-915d-0dee2e538bea","value":null}
2022-10-13 03:59:15:989 [W3C (6c9a288f)] Responding to client with driver.click() result: null
2022-10-13 03:59:15:990 [HTTP] <-- POST /wd/hub/session/6c9a288f-939b-4a0e-ac6d-bb516e8ef1a4/element/00000000-0000-0059-ffff-ffff0000004b/click 200 135 ms - 14
2022-10-13 03:59:15:990 [HTTP] 
2022-10-13 03:59:21:004 [HTTP] --> POST /wd/hub/session/6c9a288f-939b-4a0e-ac6d-bb516e8ef1a4/element
2022-10-13 03:59:21:004 [HTTP] {"using":"id","value":"com.mandir:id/iv_aartiMode"}
2022-10-13 03:59:21:005 [W3C (6c9a288f)] Calling AppiumDriver.findElement() with args: ["id","com.mandir:id/iv_aartiMode","6c9a288f-939b-4a0e-ac6d-bb516e8ef1a4"]
2022-10-13 03:59:21:005 [BaseDriver] Valid locator strategies for this request: xpath, id, class name, accessibility id, css selector, -android uiautomator
2022-10-13 03:59:21:005 [BaseDriver] Waiting up to 50000 ms for condition
2022-10-13 03:59:21:006 [WD Proxy] Matched '/element' to command name 'findElement'
2022-10-13 03:59:21:006 [WD Proxy] Proxying [POST /element] to [POST http://127.0.0.1:8200/wd/hub/session/e0e9daaf-c8fa-4e97-915d-0dee2e538bea/element] with body: {"strategy":"id","selector":"com.mandir:id/iv_aartiMode","context":"","multiple":false}
2022-10-13 03:59:31:739 [WD Proxy] Got response with status 200: {"sessionId":"e0e9daaf-c8fa-4e97-915d-0dee2e538bea","value":{"ELEMENT":"00000000-0000-0059-ffff-ffff0000004b","element-6066-11e4-a52e-4f735466cecf":"00000000-0000-0059-ffff-ffff0000004b"}}
2022-10-13 03:59:31:739 [W3C (6c9a288f)] Responding to client with driver.findElement() result: {"element-6066-11e4-a52e-4f735466cecf":"00000000-0000-0059-ffff-ffff0000004b","ELEMENT":"00000000-0000-0059-ffff-ffff0000004b"}
2022-10-13 03:59:31:740 [HTTP] <-- POST /wd/hub/session/6c9a288f-939b-4a0e-ac6d-bb516e8ef1a4/element 200 10736 ms - 137
2022-10-13 03:59:31:740 [HTTP] 
2022-10-13 03:59:31:746 [HTTP] --> POST /wd/hub/session/6c9a288f-939b-4a0e-ac6d-bb516e8ef1a4/element
2022-10-13 03:59:31:747 [HTTP] {"using":"id","value":"com.mandir:id/iv_aartiMode"}
2022-10-13 03:59:31:749 [W3C (6c9a288f)] Calling AppiumDriver.findElement() with args: ["id","com.mandir:id/iv_aartiMode","6c9a288f-939b-4a0e-ac6d-bb516e8ef1a4"]
2022-10-13 03:59:31:750 [BaseDriver] Valid locator strategies for this request: xpath, id, class name, accessibility id, css selector, -android uiautomator
2022-10-13 03:59:31:750 [BaseDriver] Waiting up to 50000 ms for condition
2022-10-13 03:59:31:750 [WD Proxy] Matched '/element' to command name 'findElement'
2022-10-13 03:59:31:750 [WD Proxy] Proxying [POST /element] to [POST http://127.0.0.1:8200/wd/hub/session/e0e9daaf-c8fa-4e97-915d-0dee2e538bea/element] with body: {"strategy":"id","selector":"com.mandir:id/iv_aartiMode","context":"","multiple":false}
2022-10-13 03:59:42:472 [WD Proxy] Got response with status 200: {"sessionId":"e0e9daaf-c8fa-4e97-915d-0dee2e538bea","value":{"ELEMENT":"00000000-0000-0059-ffff-ffff0000004b","element-6066-11e4-a52e-4f735466cecf":"00000000-0000-0059-ffff-ffff0000004b"}}
2022-10-13 03:59:42:473 [W3C (6c9a288f)] Responding to client with driver.findElement() result: {"element-6066-11e4-a52e-4f735466cecf":"00000000-0000-0059-ffff-ffff0000004b","ELEMENT":"00000000-0000-0059-ffff-ffff0000004b"}
2022-10-13 03:59:42:474 [HTTP] <-- POST /wd/hub/session/6c9a288f-939b-4a0e-ac6d-bb516e8ef1a4/element 200 10727 ms - 137
2022-10-13 03:59:42:474 [HTTP] 
2022-10-13 03:59:42:477 [HTTP] --> GET /wd/hub/session/6c9a288f-939b-4a0e-ac6d-bb516e8ef1a4/element/00000000-0000-0059-ffff-ffff0000004b/displayed
2022-10-13 03:59:42:477 [HTTP] {}
2022-10-13 03:59:42:479 [W3C (6c9a288f)] Calling AppiumDriver.elementDisplayed() with args: ["00000000-0000-0059-ffff-ffff0000004b","6c9a288f-939b-4a0e-ac6d-bb516e8ef1a4"]
2022-10-13 03:59:42:480 [WD Proxy] Matched '/element/00000000-0000-0059-ffff-ffff0000004b/attribute/displayed' to command name 'getAttribute'
2022-10-13 03:59:42:481 [WD Proxy] Proxying [GET /element/00000000-0000-0059-ffff-ffff0000004b/attribute/displayed] to [GET http://127.0.0.1:8200/wd/hub/session/e0e9daaf-c8fa-4e97-915d-0dee2e538bea/element/00000000-0000-0059-ffff-ffff0000004b/attribute/displayed] with no body
2022-10-13 04:00:02:552 [WD Proxy] Got response with status 200: {"sessionId":"e0e9daaf-c8fa-4e97-915d-0dee2e538bea","value":"true"}
2022-10-13 04:00:02:553 [W3C (6c9a288f)] Responding to client with driver.elementDisplayed() result: true
2022-10-13 04:00:02:554 [HTTP] <-- GET /wd/hub/session/6c9a288f-939b-4a0e-ac6d-bb516e8ef1a4/element/00000000-0000-0059-ffff-ffff0000004b/displayed 200 20077 ms - 14
2022-10-13 04:00:02:555 [HTTP] 
2022-10-13 04:00:02:560 [HTTP] --> POST /wd/hub/session/6c9a288f-939b-4a0e-ac6d-bb516e8ef1a4/element
2022-10-13 04:00:02:560 [HTTP] {"using":"id","value":"com.mandir:id/iv_aartiMode"}
2022-10-13 04:00:02:560 [W3C (6c9a288f)] Calling AppiumDriver.findElement() with args: ["id","com.mandir:id/iv_aartiMode","6c9a288f-939b-4a0e-ac6d-bb516e8ef1a4"]
2022-10-13 04:00:02:561 [BaseDriver] Valid locator strategies for this request: xpath, id, class name, accessibility id, css selector, -android uiautomator
2022-10-13 04:00:02:561 [BaseDriver] Waiting up to 50000 ms for condition
2022-10-13 04:00:02:561 [WD Proxy] Matched '/element' to command name 'findElement'
2022-10-13 04:00:02:561 [WD Proxy] Proxying [POST /element] to [POST http://127.0.0.1:8200/wd/hub/session/e0e9daaf-c8fa-4e97-915d-0dee2e538bea/element] with body: {"strategy":"id","selector":"com.mandir:id/iv_aartiMode","context":"","multiple":false}
2022-10-13 04:00:13:257 [WD Proxy] Got response with status 200: {"sessionId":"e0e9daaf-c8fa-4e97-915d-0dee2e538bea","value":{"ELEMENT":"00000000-0000-0059-ffff-ffff0000004b","element-6066-11e4-a52e-4f735466cecf":"00000000-0000-0059-ffff-ffff0000004b"}}
2022-10-13 04:00:13:257 [W3C (6c9a288f)] Responding to client with driver.findElement() result: {"element-6066-11e4-a52e-4f735466cecf":"00000000-0000-0059-ffff-ffff0000004b","ELEMENT":"00000000-0000-0059-ffff-ffff0000004b"}
2022-10-13 04:00:13:262 [HTTP] <-- POST /wd/hub/session/6c9a288f-939b-4a0e-ac6d-bb516e8ef1a4/element 200 10697 ms - 137
2022-10-13 04:00:13:262 [HTTP] 
2022-10-13 04:00:13:266 [HTTP] --> POST /wd/hub/session/6c9a288f-939b-4a0e-ac6d-bb516e8ef1a4/element
2022-10-13 04:00:13:266 [HTTP] {"using":"id","value":"com.mandir:id/iv_aartiMode"}
2022-10-13 04:00:13:266 [W3C (6c9a288f)] Calling AppiumDriver.findElement() with args: ["id","com.mandir:id/iv_aartiMode","6c9a288f-939b-4a0e-ac6d-bb516e8ef1a4"]
2022-10-13 04:00:13:267 [BaseDriver] Valid locator strategies for this request: xpath, id, class name, accessibility id, css selector, -android uiautomator
2022-10-13 04:00:13:267 [BaseDriver] Waiting up to 50000 ms for condition
2022-10-13 04:00:13:268 [WD Proxy] Matched '/element' to command name 'findElement'
2022-10-13 04:00:13:268 [WD Proxy] Proxying [POST /element] to [POST http://127.0.0.1:8200/wd/hub/session/e0e9daaf-c8fa-4e97-915d-0dee2e538bea/element] with body: {"strategy":"id","selector":"com.mandir:id/iv_aartiMode","context":"","multiple":false}
2022-10-13 04:00:24:007 [WD Proxy] Got response with status 200: {"sessionId":"e0e9daaf-c8fa-4e97-915d-0dee2e538bea","value":{"ELEMENT":"00000000-0000-0059-ffff-ffff0000004b","element-6066-11e4-a52e-4f735466cecf":"00000000-0000-0059-ffff-ffff0000004b"}}
2022-10-13 04:00:24:008 [W3C (6c9a288f)] Responding to client with driver.findElement() result: {"element-6066-11e4-a52e-4f735466cecf":"00000000-0000-0059-ffff-ffff0000004b","ELEMENT":"00000000-0000-0059-ffff-ffff0000004b"}
2022-10-13 04:00:24:008 [HTTP] <-- POST /wd/hub/session/6c9a288f-939b-4a0e-ac6d-bb516e8ef1a4/element 200 10742 ms - 137
2022-10-13 04:00:24:008 [HTTP] 
2022-10-13 04:00:24:013 [HTTP] --> POST /wd/hub/session/6c9a288f-939b-4a0e-ac6d-bb516e8ef1a4/element/00000000-0000-0059-ffff-ffff0000004b/click
2022-10-13 04:00:24:013 [HTTP] {"id":"00000000-0000-0059-ffff-ffff0000004b"}
2022-10-13 04:00:24:014 [W3C (6c9a288f)] Calling AppiumDriver.click() with args: ["00000000-0000-0059-ffff-ffff0000004b","6c9a288f-939b-4a0e-ac6d-bb516e8ef1a4"]
2022-10-13 04:00:24:014 [WD Proxy] Matched '/element/00000000-0000-0059-ffff-ffff0000004b/click' to command name 'click'
2022-10-13 04:00:24:015 [WD Proxy] Proxying [POST /element/00000000-0000-0059-ffff-ffff0000004b/click] to [POST http://127.0.0.1:8200/wd/hub/session/e0e9daaf-c8fa-4e97-915d-0dee2e538bea/element/00000000-0000-0059-ffff-ffff0000004b/click] with body: {"element":"00000000-0000-0059-ffff-ffff0000004b"}
2022-10-13 04:00:45:174 [WD Proxy] Got response with status 200: {"sessionId":"e0e9daaf-c8fa-4e97-915d-0dee2e538bea","value":null}
2022-10-13 04:00:45:174 [W3C (6c9a288f)] Responding to client with driver.click() result: null
2022-10-13 04:00:45:175 [HTTP] <-- POST /wd/hub/session/6c9a288f-939b-4a0e-ac6d-bb516e8ef1a4/element/00000000-0000-0059-ffff-ffff0000004b/click 200 21162 ms - 14
2022-10-13 04:00:45:175 [HTTP] 
2022-10-13 04:00:50:187 [HTTP] --> POST /wd/hub/session/6c9a288f-939b-4a0e-ac6d-bb516e8ef1a4/element
2022-10-13 04:00:50:187 [HTTP] {"using":"id","value":"com.mandir:id/iv_diya_aarthi"}
2022-10-13 04:00:50:187 [W3C (6c9a288f)] Calling AppiumDriver.findElement() with args: ["id","com.mandir:id/iv_diya_aarthi","6c9a288f-939b-4a0e-ac6d-bb516e8ef1a4"]
2022-10-13 04:00:50:188 [BaseDriver] Valid locator strategies for this request: xpath, id, class name, accessibility id, css selector, -android uiautomator
2022-10-13 04:00:50:188 [BaseDriver] Waiting up to 50000 ms for condition
2022-10-13 04:00:50:188 [WD Proxy] Matched '/element' to command name 'findElement'
2022-10-13 04:00:50:188 [WD Proxy] Proxying [POST /element] to [POST http://127.0.0.1:8200/wd/hub/session/e0e9daaf-c8fa-4e97-915d-0dee2e538bea/element] with body: {"strategy":"id","selector":"com.mandir:id/iv_diya_aarthi","context":"","multiple":false}
2022-10-13 04:00:50:243 [WD Proxy] Got response with status 200: {"sessionId":"e0e9daaf-c8fa-4e97-915d-0dee2e538bea","value":{"ELEMENT":"00000000-0000-0059-ffff-ffff00000077","element-6066-11e4-a52e-4f735466cecf":"00000000-0000-0059-ffff-ffff00000077"}}
2022-10-13 04:00:50:243 [W3C (6c9a288f)] Responding to client with driver.findElement() result: {"element-6066-11e4-a52e-4f735466cecf":"00000000-0000-0059-ffff-ffff00000077","ELEMENT":"00000000-0000-0059-ffff-ffff00000077"}
2022-10-13 04:00:50:244 [HTTP] <-- POST /wd/hub/session/6c9a288f-939b-4a0e-ac6d-bb516e8ef1a4/element 200 56 ms - 137
2022-10-13 04:00:50:244 [HTTP] 
2022-10-13 04:00:50:249 [HTTP] --> POST /wd/hub/session/6c9a288f-939b-4a0e-ac6d-bb516e8ef1a4/element
2022-10-13 04:00:50:249 [HTTP] {"using":"id","value":"com.mandir:id/iv_diya_aarthi"}
2022-10-13 04:00:50:250 [W3C (6c9a288f)] Calling AppiumDriver.findElement() with args: ["id","com.mandir:id/iv_diya_aarthi","6c9a288f-939b-4a0e-ac6d-bb516e8ef1a4"]
2022-10-13 04:00:50:250 [BaseDriver] Valid locator strategies for this request: xpath, id, class name, accessibility id, css selector, -android uiautomator
2022-10-13 04:00:50:250 [BaseDriver] Waiting up to 50000 ms for condition
2022-10-13 04:00:50:251 [WD Proxy] Matched '/element' to command name 'findElement'
2022-10-13 04:00:50:251 [WD Proxy] Proxying [POST /element] to [POST http://127.0.0.1:8200/wd/hub/session/e0e9daaf-c8fa-4e97-915d-0dee2e538bea/element] with body: {"strategy":"id","selector":"com.mandir:id/iv_diya_aarthi","context":"","multiple":false}
2022-10-13 04:00:50:289 [WD Proxy] Got response with status 200: {"sessionId":"e0e9daaf-c8fa-4e97-915d-0dee2e538bea","value":{"ELEMENT":"00000000-0000-0059-ffff-ffff00000077","element-6066-11e4-a52e-4f735466cecf":"00000000-0000-0059-ffff-ffff00000077"}}
2022-10-13 04:00:50:289 [W3C (6c9a288f)] Responding to client with driver.findElement() result: {"element-6066-11e4-a52e-4f735466cecf":"00000000-0000-0059-ffff-ffff00000077","ELEMENT":"00000000-0000-0059-ffff-ffff00000077"}
2022-10-13 04:00:50:290 [HTTP] <-- POST /wd/hub/session/6c9a288f-939b-4a0e-ac6d-bb516e8ef1a4/element 200 40 ms - 137
2022-10-13 04:00:50:290 [HTTP] 
2022-10-13 04:00:50:292 [HTTP] --> GET /wd/hub/session/6c9a288f-939b-4a0e-ac6d-bb516e8ef1a4/element/00000000-0000-0059-ffff-ffff00000077/displayed
2022-10-13 04:00:50:293 [HTTP] {}
2022-10-13 04:00:50:293 [W3C (6c9a288f)] Calling AppiumDriver.elementDisplayed() with args: ["00000000-0000-0059-ffff-ffff00000077","6c9a288f-939b-4a0e-ac6d-bb516e8ef1a4"]
2022-10-13 04:00:50:293 [WD Proxy] Matched '/element/00000000-0000-0059-ffff-ffff00000077/attribute/displayed' to command name 'getAttribute'
2022-10-13 04:00:50:294 [WD Proxy] Proxying [GET /element/00000000-0000-0059-ffff-ffff00000077/attribute/displayed] to [GET http://127.0.0.1:8200/wd/hub/session/e0e9daaf-c8fa-4e97-915d-0dee2e538bea/element/00000000-0000-0059-ffff-ffff00000077/attribute/displayed] with no body
2022-10-13 04:00:50:313 [WD Proxy] Got response with status 200: {"sessionId":"e0e9daaf-c8fa-4e97-915d-0dee2e538bea","value":"true"}
2022-10-13 04:00:50:313 [W3C (6c9a288f)] Responding to client with driver.elementDisplayed() result: true
2022-10-13 04:00:50:314 [HTTP] <-- GET /wd/hub/session/6c9a288f-939b-4a0e-ac6d-bb516e8ef1a4/element/00000000-0000-0059-ffff-ffff00000077/displayed 200 22 ms - 14
2022-10-13 04:00:50:314 [HTTP] 
2022-10-13 04:00:50:323 [HTTP] --> POST /wd/hub/session/6c9a288f-939b-4a0e-ac6d-bb516e8ef1a4/touch/perform
2022-10-13 04:00:50:323 [HTTP] {"actions":[{"action":"press","options":{"x":559,"y":1386}},{"action":"wait","options":{}}]}
2022-10-13 04:00:50:326 [W3C (6c9a288f)] Calling AppiumDriver.performTouch() with args: [[{"action":"press","options":{"x":559,"y":1386}},{"action":"wait","options":{}}],"6c9a288f-939b-4a0e-ac6d-bb516e8ef1a4"]
2022-10-13 04:00:50:327 [WD Proxy] Matched '/touch/down' to command name 'touchDown'
2022-10-13 04:00:50:327 [WD Proxy] Proxying [POST /touch/down] to [POST http://127.0.0.1:8200/wd/hub/session/e0e9daaf-c8fa-4e97-915d-0dee2e538bea/touch/down] with body: {"params":{"element":null,"x":559,"y":1386}}
2022-10-13 04:00:51:125 [WD Proxy] Got response with status 200: {"sessionId":"e0e9daaf-c8fa-4e97-915d-0dee2e538bea","value":null}
2022-10-13 04:00:51:125 [W3C (6c9a288f)] Responding to client with driver.performTouch() result: null
2022-10-13 04:00:51:126 [HTTP] <-- POST /wd/hub/session/6c9a288f-939b-4a0e-ac6d-bb516e8ef1a4/touch/perform 200 802 ms - 14
2022-10-13 04:00:51:126 [HTTP] 
2022-10-13 04:00:51:130 [HTTP] --> POST /wd/hub/session/6c9a288f-939b-4a0e-ac6d-bb516e8ef1a4/touch/perform
2022-10-13 04:00:51:130 [HTTP] {"actions":[{"action":"moveTo","options":{"x":545,"y":770}},{"action":"release","options":{}}]}
2022-10-13 04:00:51:132 [W3C (6c9a288f)] Calling AppiumDriver.performTouch() with args: [[{"action":"moveTo","options":{"x":545,"y":770}},{"action":"release","options":{}}],"6c9a288f-939b-4a0e-ac6d-bb516e8ef1a4"]
2022-10-13 04:00:51:133 [WD Proxy] Matched '/touch/move' to command name 'touchMove'
2022-10-13 04:00:51:133 [WD Proxy] Proxying [POST /touch/move] to [POST http://127.0.0.1:8200/wd/hub/session/e0e9daaf-c8fa-4e97-915d-0dee2e538bea/touch/move] with body: {"params":{"element":null,"x":545,"y":770}}
2022-10-13 04:00:51:901 [WD Proxy] Got response with status 200: {"sessionId":"e0e9daaf-c8fa-4e97-915d-0dee2e538bea","value":null}
2022-10-13 04:00:51:902 [WD Proxy] Matched '/touch/up' to command name 'touchUp'
2022-10-13 04:00:51:902 [WD Proxy] Proxying [POST /touch/up] to [POST http://127.0.0.1:8200/wd/hub/session/e0e9daaf-c8fa-4e97-915d-0dee2e538bea/touch/up] with body: {"params":{"x":545,"y":770}}
2022-10-13 04:00:52:682 [WD Proxy] Got response with status 200: {"sessionId":"e0e9daaf-c8fa-4e97-915d-0dee2e538bea","value":null}
2022-10-13 04:00:52:683 [W3C (6c9a288f)] Responding to client with driver.performTouch() result: null
2022-10-13 04:00:52:683 [HTTP] <-- POST /wd/hub/session/6c9a288f-939b-4a0e-ac6d-bb516e8ef1a4/touch/perform 200 1554 ms - 14
2022-10-13 04:00:52:684 [HTTP] 
2022-10-13 04:00:57:696 [HTTP] --> POST /wd/hub/session/6c9a288f-939b-4a0e-ac6d-bb516e8ef1a4/element
2022-10-13 04:00:57:696 [HTTP] {"using":"id","value":"com.mandir:id/iv_diya_aarthi"}
2022-10-13 04:00:57:696 [W3C (6c9a288f)] Calling AppiumDriver.findElement() with args: ["id","com.mandir:id/iv_diya_aarthi","6c9a288f-939b-4a0e-ac6d-bb516e8ef1a4"]
2022-10-13 04:00:57:697 [BaseDriver] Valid locator strategies for this request: xpath, id, class name, accessibility id, css selector, -android uiautomator
2022-10-13 04:00:57:697 [BaseDriver] Waiting up to 50000 ms for condition
2022-10-13 04:00:57:697 [WD Proxy] Matched '/element' to command name 'findElement'
2022-10-13 04:00:57:697 [WD Proxy] Proxying [POST /element] to [POST http://127.0.0.1:8200/wd/hub/session/e0e9daaf-c8fa-4e97-915d-0dee2e538bea/element] with body: {"strategy":"id","selector":"com.mandir:id/iv_diya_aarthi","context":"","multiple":false}
2022-10-13 04:00:57:753 [WD Proxy] Got response with status 200: {"sessionId":"e0e9daaf-c8fa-4e97-915d-0dee2e538bea","value":{"ELEMENT":"00000000-0000-0059-ffff-ffff00000077","element-6066-11e4-a52e-4f735466cecf":"00000000-0000-0059-ffff-ffff00000077"}}
2022-10-13 04:00:57:753 [W3C (6c9a288f)] Responding to client with driver.findElement() result: {"element-6066-11e4-a52e-4f735466cecf":"00000000-0000-0059-ffff-ffff00000077","ELEMENT":"00000000-0000-0059-ffff-ffff00000077"}
2022-10-13 04:00:57:754 [HTTP] <-- POST /wd/hub/session/6c9a288f-939b-4a0e-ac6d-bb516e8ef1a4/element 200 57 ms - 137
2022-10-13 04:00:57:754 [HTTP] 
2022-10-13 04:00:57:756 [HTTP] --> GET /wd/hub/session/6c9a288f-939b-4a0e-ac6d-bb516e8ef1a4/element/00000000-0000-0059-ffff-ffff00000077/displayed
2022-10-13 04:00:57:756 [HTTP] {}
2022-10-13 04:00:57:756 [W3C (6c9a288f)] Calling AppiumDriver.elementDisplayed() with args: ["00000000-0000-0059-ffff-ffff00000077","6c9a288f-939b-4a0e-ac6d-bb516e8ef1a4"]
2022-10-13 04:00:57:757 [WD Proxy] Matched '/element/00000000-0000-0059-ffff-ffff00000077/attribute/displayed' to command name 'getAttribute'
2022-10-13 04:00:57:757 [WD Proxy] Proxying [GET /element/00000000-0000-0059-ffff-ffff00000077/attribute/displayed] to [GET http://127.0.0.1:8200/wd/hub/session/e0e9daaf-c8fa-4e97-915d-0dee2e538bea/element/00000000-0000-0059-ffff-ffff00000077/attribute/displayed] with no body
2022-10-13 04:00:57:766 [WD Proxy] Got response with status 200: {"sessionId":"e0e9daaf-c8fa-4e97-915d-0dee2e538bea","value":"true"}
2022-10-13 04:00:57:767 [W3C (6c9a288f)] Responding to client with driver.elementDisplayed() result: true
2022-10-13 04:00:57:767 [HTTP] <-- GET /wd/hub/session/6c9a288f-939b-4a0e-ac6d-bb516e8ef1a4/element/00000000-0000-0059-ffff-ffff00000077/displayed 200 11 ms - 14
2022-10-13 04:00:57:767 [HTTP] 
2022-10-13 04:00:57:775 [HTTP] --> POST /wd/hub/session/6c9a288f-939b-4a0e-ac6d-bb516e8ef1a4/appium/app/close
2022-10-13 04:00:57:775 [HTTP] {}
2022-10-13 04:00:57:778 [W3C (6c9a288f)] Calling AppiumDriver.closeApp() with args: ["6c9a288f-939b-4a0e-ac6d-bb516e8ef1a4"]
2022-10-13 04:00:57:778 [ADB] Running 'C:\Users\Santhruptha\AppData\Local\Android\Sdk\platform-tools\adb.exe -P 5037 -s emulator-5554 shell am force-stop com.mandir'
2022-10-13 04:00:57:931 [W3C (6c9a288f)] Responding to client with driver.closeApp() result: null
2022-10-13 04:00:57:932 [HTTP] <-- POST /wd/hub/session/6c9a288f-939b-4a0e-ac6d-bb516e8ef1a4/appium/app/close 200 156 ms - 14
2022-10-13 04:00:57:932 [HTTP] 
